{
"type": "FeatureCollection",
"name": "massifs_WGS84simplifiejoin",
"crs": { "type": "name", "properties": { "name": "urn:ogc:def:crs:OGC:1.3:CRS84" } },
"features": [
{ "type": "Feature", "properties": { "code": 1, "mountain": "Alpes du Nord", "title": "Chablais", "title_s": "Chabl", "id_mf": "OPP01" }, "geometry": { "type": "Polygon", "coordinates": [ [ [ 6.879, 46.046 ], [ 6.868, 46.036 ], [ 6.852, 46.025 ], [ 6.84, 46.006 ], [ 6.825, 45.984 ], [ 6.818, 45.959 ], [ 6.809, 45.941 ], [ 6.784, 45.939 ], [ 6.753, 45.941 ], [ 6.729, 45.935 ], [ 6.708, 45.917 ], [ 6.691, 45.907 ], [ 6.666, 45.915 ], [ 6.646, 45.934 ], [ 6.632, 45.959 ], [ 6.628, 45.984 ], [ 6.614, 46.012 ], [ 6.604, 46.03 ], [ 6.583, 46.05 ], [ 6.567, 46.066 ], [ 6.564, 46.067 ], [ 6.542, 46.079 ], [ 6.52, 46.09 ], [ 6.496, 46.096 ], [ 6.468, 46.106 ], [ 6.438, 46.113 ], [ 6.413, 46.125 ], [ 6.385, 46.133 ], [ 6.339, 46.154 ], [ 6.33, 46.172 ], [ 6.319, 46.187 ], [ 6.326, 46.225 ], [ 6.342, 46.241 ], [ 6.4, 46.266 ], [ 6.436, 46.282 ], [ 6.464, 46.297 ], [ 6.482, 46.312 ], [ 6.506, 46.325 ], [ 6.571, 46.374 ], [ 6.598, 46.385 ], [ 6.65, 46.4 ], [ 6.661, 46.402 ], [ 6.713, 46.404 ], [ 6.742, 46.402 ], [ 6.758, 46.398 ], [ 6.808, 46.389 ], [ 6.808, 46.375 ], [ 6.805, 46.375 ], [ 6.791, 46.365 ], [ 6.778, 46.362 ], [ 6.775, 46.352 ], [ 6.779, 46.345 ], [ 6.802, 46.32 ], [ 6.832, 46.308 ], [ 6.848, 46.288 ], [ 6.861, 46.29 ], [ 6.869, 46.278 ], [ 6.857, 46.25 ], [ 6.841, 46.245 ], [ 6.823, 46.224 ], [ 6.81, 46.198 ], [ 6.811, 46.179 ], [ 6.794, 46.153 ], [ 6.8, 46.137 ], [ 6.819, 46.129 ], [ 6.846, 46.131 ], [ 6.852, 46.124 ], [ 6.901, 46.122 ], [ 6.888, 46.094 ], [ 6.898, 46.081 ], [ 6.873, 46.049 ], [ 6.881, 46.047 ], [ 6.879, 46.046 ] ] ] } },
{ "type": "Feature", "properties": { "code": 2, "mountain": "Alpes du Nord", "title": "Aravis", "title_s": "Aravi", "id_mf": "OPP02" }, "geometry": { "type": "Polygon", "coordinates": [ [ [ 6.583, 46.05 ], [ 6.604, 46.03 ], [ 6.614, 46.012 ], [ 6.628, 45.984 ], [ 6.632, 45.959 ], [ 6.646, 45.934 ], [ 6.666, 45.915 ], [ 6.655, 45.905 ], [ 6.643, 45.889 ], [ 6.624, 45.869 ], [ 6.599, 45.852 ], [ 6.575, 45.839 ], [ 6.542, 45.833 ], [ 6.516, 45.82 ], [ 6.493, 45.801 ], [ 6.483, 45.782 ], [ 6.471, 45.764 ], [ 6.454, 45.753 ], [ 6.429, 45.753 ], [ 6.418, 45.742 ], [ 6.395, 45.72 ], [ 6.379, 45.703 ], [ 6.369, 45.685 ], [ 6.355, 45.667 ], [ 6.345, 45.659 ], [ 6.324, 45.667 ], [ 6.304, 45.684 ], [ 6.29, 45.702 ], [ 6.266, 45.721 ], [ 6.258, 45.739 ], [ 6.232, 45.759 ], [ 6.213, 45.781 ], [ 6.202, 45.808 ], [ 6.189, 45.831 ], [ 6.179, 45.849 ], [ 6.172, 45.867 ], [ 6.171, 45.87 ], [ 6.165, 45.891 ], [ 6.173, 45.939 ], [ 6.182, 45.958 ], [ 6.194, 45.977 ], [ 6.234, 46.001 ], [ 6.258, 46.012 ], [ 6.292, 46.028 ], [ 6.327, 46.036 ], [ 6.364, 46.046 ], [ 6.399, 46.054 ], [ 6.436, 46.059 ], [ 6.474, 46.057 ], [ 6.503, 46.06 ], [ 6.536, 46.065 ], [ 6.564, 46.067 ], [ 6.567, 46.066 ], [ 6.583, 46.05 ] ] ] } },
{ "type": "Feature", "properties": { "code": 3, "mountain": "Alpes du Nord", "title": "Mont-Blanc", "title_s": "M-Bla", "id_mf": "OPP03" }, "geometry": { "type": "Polygon", "coordinates": [ [ [ 6.804, 45.788 ], [ 6.787, 45.782 ], [ 6.77, 45.771 ], [ 6.744, 45.762 ], [ 6.739, 45.75 ], [ 6.711, 45.756 ], [ 6.696, 45.766 ], [ 6.673, 45.779 ], [ 6.661, 45.793 ], [ 6.633, 45.8 ], [ 6.599, 45.808 ], [ 6.571, 45.812 ], [ 6.542, 45.816 ], [ 6.516, 45.82 ], [ 6.542, 45.833 ], [ 6.575, 45.839 ], [ 6.599, 45.852 ], [ 6.624, 45.869 ], [ 6.643, 45.889 ], [ 6.655, 45.905 ], [ 6.666, 45.915 ], [ 6.691, 45.907 ], [ 6.708, 45.917 ], [ 6.729, 45.935 ], [ 6.753, 45.941 ], [ 6.784, 45.939 ], [ 6.809, 45.941 ], [ 6.818, 45.959 ], [ 6.825, 45.984 ], [ 6.84, 46.006 ], [ 6.852, 46.025 ], [ 6.868, 46.036 ], [ 6.879, 46.046 ], [ 6.882, 46.047 ], [ 6.895, 46.043 ], [ 6.919, 46.056 ], [ 6.924, 46.062 ], [ 6.929, 46.065 ], [ 6.941, 46.062 ], [ 6.967, 46.029 ], [ 6.986, 46.018 ], [ 6.99, 46.003 ], [ 7.011, 45.999 ], [ 7.025, 45.976 ], [ 7.014, 45.972 ], [ 7.019, 45.96 ], [ 7.041, 45.951 ], [ 7.046, 45.922 ], [ 7.008, 45.899 ], [ 6.996, 45.869 ], [ 6.953, 45.859 ], [ 6.945, 45.845 ], [ 6.893, 45.843 ], [ 6.885, 45.848 ], [ 6.881, 45.846 ], [ 6.873, 45.827 ], [ 6.847, 45.843 ], [ 6.819, 45.836 ], [ 6.809, 45.814 ], [ 6.816, 45.809 ], [ 6.808, 45.789 ], [ 6.804, 45.788 ] ] ] } },
{ "type": "Feature", "properties": { "code": 4, "mountain": "Alpes du Nord", "title": "Bauges", "title_s": "Bauge", "id_mf": "0PP04" }, "geometry": { "type": "Polygon", "coordinates": [ [ [ 6.179, 45.849 ], [ 6.179, 45.849 ], [ 6.189, 45.831 ], [ 6.202, 45.808 ], [ 6.213, 45.781 ], [ 6.232, 45.759 ], [ 6.258, 45.739 ], [ 6.266, 45.721 ], [ 6.29, 45.702 ], [ 6.304, 45.684 ], [ 6.324, 45.667 ], [ 6.345, 45.659 ], [ 6.333, 45.638 ], [ 6.309, 45.622 ], [ 6.284, 45.604 ], [ 6.256, 45.586 ], [ 6.224, 45.568 ], [ 6.197, 45.557 ], [ 6.162, 45.54 ], [ 6.131, 45.524 ], [ 6.102, 45.503 ], [ 6.078, 45.482 ], [ 6.043, 45.467 ], [ 5.997, 45.453 ], [ 5.987, 45.481 ], [ 5.962, 45.509 ], [ 5.944, 45.53 ], [ 5.918, 45.553 ], [ 5.893, 45.577 ], [ 5.891, 45.595 ], [ 5.89, 45.608 ], [ 5.92, 45.664 ], [ 5.946, 45.69 ], [ 5.979, 45.716 ], [ 6.005, 45.744 ], [ 6.027, 45.771 ], [ 6.064, 45.821 ], [ 6.076, 45.851 ], [ 6.14, 45.867 ], [ 6.171, 45.87 ], [ 6.179, 45.849 ] ] ] } },
{ "type": "Feature", "properties": { "code": 5, "mountain": "Alpes du Nord", "title": "Beaufortain", "title_s": "Beauf", "id_mf": "OPP05" }, "geometry": { "type": "Polygon", "coordinates": [ [ [ 6.739, 45.75 ], [ 6.736, 45.745 ], [ 6.728, 45.722 ], [ 6.723, 45.695 ], [ 6.731, 45.682 ], [ 6.754, 45.671 ], [ 6.774, 45.661 ], [ 6.788, 45.644 ], [ 6.782, 45.621 ], [ 6.766, 45.6 ], [ 6.751, 45.582 ], [ 6.738, 45.566 ], [ 6.717, 45.556 ], [ 6.687, 45.553 ], [ 6.654, 45.545 ], [ 6.631, 45.542 ], [ 6.601, 45.533 ], [ 6.579, 45.519 ], [ 6.567, 45.504 ], [ 6.552, 45.489 ], [ 6.548, 45.465 ], [ 6.527, 45.458 ], [ 6.516, 45.476 ], [ 6.495, 45.497 ], [ 6.474, 45.519 ], [ 6.458, 45.544 ], [ 6.452, 45.569 ], [ 6.442, 45.595 ], [ 6.433, 45.617 ], [ 6.42, 45.638 ], [ 6.408, 45.656 ], [ 6.382, 45.662 ], [ 6.355, 45.667 ], [ 6.369, 45.685 ], [ 6.379, 45.703 ], [ 6.395, 45.72 ], [ 6.418, 45.742 ], [ 6.429, 45.753 ], [ 6.454, 45.753 ], [ 6.471, 45.764 ], [ 6.483, 45.782 ], [ 6.493, 45.801 ], [ 6.516, 45.82 ], [ 6.542, 45.816 ], [ 6.571, 45.812 ], [ 6.599, 45.808 ], [ 6.633, 45.8 ], [ 6.661, 45.793 ], [ 6.673, 45.779 ], [ 6.696, 45.766 ], [ 6.711, 45.756 ], [ 6.739, 45.75 ] ] ] } },
{ "type": "Feature", "properties": { "code": 6, "mountain": "Alpes du Nord", "title": "Haute-Tarentaise", "title_s": "H-Tar", "id_mf": "OPP06" }, "geometry": { "type": "Polygon", "coordinates": [ [ [ 7.083, 45.47 ], [ 7.076, 45.455 ], [ 7.07, 45.433 ], [ 7.058, 45.408 ], [ 7.044, 45.385 ], [ 7.027, 45.37 ], [ 7.005, 45.354 ], [ 6.977, 45.336 ], [ 6.947, 45.317 ], [ 6.923, 45.305 ], [ 6.924, 45.322 ], [ 6.924, 45.336 ], [ 6.923, 45.348 ], [ 6.921, 45.363 ], [ 6.912, 45.381 ], [ 6.901, 45.402 ], [ 6.889, 45.421 ], [ 6.875, 45.442 ], [ 6.857, 45.464 ], [ 6.838, 45.482 ], [ 6.82, 45.501 ], [ 6.796, 45.521 ], [ 6.777, 45.538 ], [ 6.758, 45.554 ], [ 6.738, 45.566 ], [ 6.751, 45.582 ], [ 6.766, 45.6 ], [ 6.782, 45.621 ], [ 6.788, 45.644 ], [ 6.774, 45.661 ], [ 6.754, 45.671 ], [ 6.731, 45.682 ], [ 6.723, 45.695 ], [ 6.728, 45.722 ], [ 6.739, 45.75 ], [ 6.744, 45.762 ], [ 6.77, 45.771 ], [ 6.787, 45.782 ], [ 6.804, 45.788 ], [ 6.807, 45.789 ], [ 6.803, 45.778 ], [ 6.808, 45.747 ], [ 6.823, 45.74 ], [ 6.813, 45.726 ], [ 6.837, 45.7 ], [ 6.849, 45.691 ], [ 6.89, 45.677 ], [ 6.902, 45.68 ], [ 6.913, 45.676 ], [ 6.906, 45.663 ], [ 6.92, 45.652 ], [ 6.941, 45.646 ], [ 6.968, 45.655 ], [ 7.006, 45.639 ], [ 6.988, 45.618 ], [ 6.987, 45.582 ], [ 7.0, 45.575 ], [ 7.0, 45.53 ], [ 7.009, 45.52 ], [ 7.008, 45.505 ], [ 7.026, 45.496 ], [ 7.059, 45.494 ], [ 7.064, 45.486 ], [ 7.053, 45.477 ], [ 7.061, 45.473 ], [ 7.083, 45.47 ] ] ] } },
{ "type": "Feature", "properties": { "code": 7, "mountain": "Alpes du Nord", "title": "Chartreuse", "title_s": "Chart", "id_mf": "OPP07" }, "geometry": { "type": "Polygon", "coordinates": [ [ [ 5.997, 45.453 ], [ 6.0, 45.448 ], [ 5.989, 45.418 ], [ 5.973, 45.386 ], [ 5.965, 45.359 ], [ 5.944, 45.332 ], [ 5.932, 45.305 ], [ 5.915, 45.286 ], [ 5.894, 45.265 ], [ 5.866, 45.242 ], [ 5.838, 45.221 ], [ 5.795, 45.199 ], [ 5.753, 45.184 ], [ 5.73, 45.18 ], [ 5.713, 45.177 ], [ 5.688, 45.204 ], [ 5.667, 45.231 ], [ 5.645, 45.253 ], [ 5.623, 45.277 ], [ 5.593, 45.292 ], [ 5.586, 45.32 ], [ 5.6, 45.344 ], [ 5.653, 45.389 ], [ 5.689, 45.414 ], [ 5.724, 45.434 ], [ 5.746, 45.461 ], [ 5.767, 45.482 ], [ 5.768, 45.513 ], [ 5.787, 45.572 ], [ 5.826, 45.59 ], [ 5.856, 45.595 ], [ 5.891, 45.595 ], [ 5.893, 45.577 ], [ 5.918, 45.553 ], [ 5.944, 45.53 ], [ 5.962, 45.509 ], [ 5.987, 45.481 ], [ 5.997, 45.453 ] ] ] } },
{ "type": "Feature", "properties": { "code": 8, "mountain": "Alpes du Nord", "title": "Belledonne", "title_s": "Belle", "id_mf": "OPP08" }, "geometry": { "type": "Polygon", "coordinates": [ [ [ 6.2, 45.28 ], [ 6.184, 45.254 ], [ 6.17, 45.243 ], [ 6.155, 45.233 ], [ 6.14, 45.225 ], [ 6.123, 45.214 ], [ 6.108, 45.205 ], [ 6.085, 45.203 ], [ 6.065, 45.206 ], [ 6.043, 45.205 ], [ 6.029, 45.194 ], [ 6.028, 45.18 ], [ 6.042, 45.165 ], [ 6.049, 45.144 ], [ 6.038, 45.127 ], [ 6.022, 45.115 ], [ 5.998, 45.114 ], [ 5.971, 45.117 ], [ 5.952, 45.113 ], [ 5.937, 45.103 ], [ 5.914, 45.093 ], [ 5.894, 45.081 ], [ 5.874, 45.063 ], [ 5.85, 45.051 ], [ 5.827, 45.041 ], [ 5.796, 45.042 ], [ 5.763, 45.047 ], [ 5.74, 45.065 ], [ 5.731, 45.086 ], [ 5.721, 45.104 ], [ 5.715, 45.12 ], [ 5.72, 45.136 ], [ 5.724, 45.152 ], [ 5.728, 45.166 ], [ 5.73, 45.18 ], [ 5.753, 45.184 ], [ 5.795, 45.199 ], [ 5.838, 45.221 ], [ 5.866, 45.242 ], [ 5.894, 45.265 ], [ 5.915, 45.286 ], [ 5.932, 45.305 ], [ 5.944, 45.332 ], [ 5.965, 45.359 ], [ 5.973, 45.386 ], [ 5.989, 45.418 ], [ 6.0, 45.448 ], [ 5.997, 45.453 ], [ 6.043, 45.467 ], [ 6.078, 45.482 ], [ 6.102, 45.503 ], [ 6.131, 45.524 ], [ 6.162, 45.54 ], [ 6.177, 45.535 ], [ 6.196, 45.533 ], [ 6.21, 45.524 ], [ 6.227, 45.513 ], [ 6.223, 45.498 ], [ 6.222, 45.481 ], [ 6.218, 45.465 ], [ 6.215, 45.446 ], [ 6.212, 45.429 ], [ 6.21, 45.41 ], [ 6.207, 45.392 ], [ 6.204, 45.374 ], [ 6.205, 45.359 ], [ 6.203, 45.345 ], [ 6.202, 45.327 ], [ 6.199, 45.311 ], [ 6.2, 45.294 ], [ 6.2, 45.28 ] ] ] } },
{ "type": "Feature", "properties": { "code": 9, "mountain": "Alpes du Nord", "title": "Maurienne", "title_s": "Mauri", "id_mf": "OPP09" }, "geometry": { "type": "Polygon", "coordinates": [ [ [ 6.613, 45.24 ], [ 6.616, 45.225 ], [ 6.62, 45.21 ], [ 6.62, 45.191 ], [ 6.623, 45.172 ], [ 6.626, 45.154 ], [ 6.629, 45.136 ], [ 6.633, 45.12 ], [ 6.633, 45.114 ], [ 6.633, 45.112 ], [ 6.631, 45.112 ], [ 6.633, 45.109 ], [ 6.632, 45.102 ], [ 6.628, 45.106 ], [ 6.616, 45.116 ], [ 6.612, 45.12 ], [ 6.601, 45.133 ], [ 6.585, 45.148 ], [ 6.568, 45.152 ], [ 6.541, 45.151 ], [ 6.517, 45.153 ], [ 6.497, 45.156 ], [ 6.461, 45.148 ], [ 6.436, 45.148 ], [ 6.409, 45.143 ], [ 6.387, 45.141 ], [ 6.358, 45.144 ], [ 6.33, 45.148 ], [ 6.308, 45.154 ], [ 6.282, 45.161 ], [ 6.257, 45.171 ], [ 6.236, 45.182 ], [ 6.224, 45.193 ], [ 6.213, 45.21 ], [ 6.208, 45.226 ], [ 6.205, 45.24 ], [ 6.2, 45.28 ], [ 6.2, 45.294 ], [ 6.199, 45.311 ], [ 6.202, 45.327 ], [ 6.203, 45.345 ], [ 6.205, 45.359 ], [ 6.204, 45.374 ], [ 6.207, 45.392 ], [ 6.21, 45.41 ], [ 6.212, 45.429 ], [ 6.215, 45.446 ], [ 6.218, 45.465 ], [ 6.222, 45.481 ], [ 6.223, 45.498 ], [ 6.227, 45.513 ], [ 6.21, 45.524 ], [ 6.196, 45.533 ], [ 6.177, 45.535 ], [ 6.162, 45.54 ], [ 6.197, 45.557 ], [ 6.224, 45.568 ], [ 6.256, 45.586 ], [ 6.284, 45.604 ], [ 6.309, 45.622 ], [ 6.333, 45.638 ], [ 6.345, 45.659 ], [ 6.357, 45.643 ], [ 6.374, 45.626 ], [ 6.37, 45.601 ], [ 6.371, 45.577 ], [ 6.369, 45.555 ], [ 6.363, 45.531 ], [ 6.353, 45.499 ], [ 6.346, 45.471 ], [ 6.345, 45.445 ], [ 6.343, 45.421 ], [ 6.35, 45.4 ], [ 6.368, 45.376 ], [ 6.399, 45.355 ], [ 6.426, 45.327 ], [ 6.463, 45.3 ], [ 6.482, 45.285 ], [ 6.506, 45.269 ], [ 6.529, 45.259 ], [ 6.561, 45.248 ], [ 6.589, 45.24 ], [ 6.613, 45.24 ] ] ] } },
{ "type": "Feature", "properties": { "code": 10, "mountain": "Alpes du Nord", "title": "Vanoise", "title_s": "Vanoi", "id_mf": "OPP10" }, "geometry": { "type": "Polygon", "coordinates": [ [ [ 6.738, 45.566 ], [ 6.758, 45.554 ], [ 6.777, 45.538 ], [ 6.796, 45.521 ], [ 6.82, 45.501 ], [ 6.838, 45.482 ], [ 6.857, 45.464 ], [ 6.875, 45.442 ], [ 6.889, 45.421 ], [ 6.901, 45.402 ], [ 6.912, 45.381 ], [ 6.921, 45.363 ], [ 6.923, 45.348 ], [ 6.924, 45.336 ], [ 6.924, 45.322 ], [ 6.923, 45.305 ], [ 6.918, 45.302 ], [ 6.881, 45.303 ], [ 6.843, 45.307 ], [ 6.818, 45.302 ], [ 6.795, 45.295 ], [ 6.779, 45.285 ], [ 6.764, 45.269 ], [ 6.747, 45.253 ], [ 6.731, 45.244 ], [ 6.713, 45.242 ], [ 6.689, 45.241 ], [ 6.65, 45.242 ], [ 6.613, 45.24 ], [ 6.589, 45.24 ], [ 6.561, 45.248 ], [ 6.529, 45.259 ], [ 6.506, 45.269 ], [ 6.482, 45.285 ], [ 6.463, 45.3 ], [ 6.426, 45.327 ], [ 6.399, 45.355 ], [ 6.368, 45.376 ], [ 6.35, 45.4 ], [ 6.343, 45.421 ], [ 6.345, 45.445 ], [ 6.346, 45.471 ], [ 6.353, 45.499 ], [ 6.363, 45.531 ], [ 6.369, 45.555 ], [ 6.371, 45.577 ], [ 6.37, 45.601 ], [ 6.374, 45.626 ], [ 6.357, 45.643 ], [ 6.345, 45.659 ], [ 6.355, 45.667 ], [ 6.382, 45.662 ], [ 6.408, 45.656 ], [ 6.42, 45.638 ], [ 6.433, 45.617 ], [ 6.442, 45.595 ], [ 6.452, 45.569 ], [ 6.458, 45.544 ], [ 6.474, 45.519 ], [ 6.495, 45.497 ], [ 6.516, 45.476 ], [ 6.527, 45.458 ], [ 6.548, 45.465 ], [ 6.552, 45.489 ], [ 6.567, 45.504 ], [ 6.579, 45.519 ], [ 6.601, 45.533 ], [ 6.631, 45.542 ], [ 6.654, 45.545 ], [ 6.687, 45.553 ], [ 6.717, 45.556 ], [ 6.738, 45.566 ] ] ] } },
{ "type": "Feature", "properties": { "code": 11, "mountain": "Alpes du Nord", "title": "Haute-Maurienne", "title_s": "H-Mau", "id_mf": "OPP11" }, "geometry": { "type": "Polygon", "coordinates": [ [ [ 7.118, 45.313 ], [ 7.141, 45.285 ], [ 7.139, 45.256 ], [ 7.125, 45.245 ], [ 7.11, 45.247 ], [ 7.076, 45.215 ], [ 7.051, 45.226 ], [ 7.027, 45.215 ], [ 7.003, 45.217 ], [ 6.963, 45.205 ], [ 6.968, 45.197 ], [ 6.954, 45.172 ], [ 6.939, 45.172 ], [ 6.897, 45.167 ], [ 6.889, 45.154 ], [ 6.899, 45.14 ], [ 6.861, 45.132 ], [ 6.801, 45.154 ], [ 6.774, 45.16 ], [ 6.744, 45.139 ], [ 6.713, 45.145 ], [ 6.682, 45.139 ], [ 6.675, 45.124 ], [ 6.633, 45.112 ], [ 6.633, 45.114 ], [ 6.633, 45.12 ], [ 6.629, 45.136 ], [ 6.626, 45.154 ], [ 6.623, 45.172 ], [ 6.62, 45.191 ], [ 6.62, 45.21 ], [ 6.616, 45.225 ], [ 6.613, 45.24 ], [ 6.65, 45.242 ], [ 6.689, 45.241 ], [ 6.713, 45.242 ], [ 6.731, 45.244 ], [ 6.747, 45.253 ], [ 6.764, 45.269 ], [ 6.779, 45.285 ], [ 6.795, 45.295 ], [ 6.818, 45.302 ], [ 6.843, 45.307 ], [ 6.881, 45.303 ], [ 6.918, 45.302 ], [ 6.923, 45.305 ], [ 6.947, 45.317 ], [ 6.977, 45.336 ], [ 7.005, 45.354 ], [ 7.027, 45.37 ], [ 7.044, 45.385 ], [ 7.058, 45.408 ], [ 7.07, 45.433 ], [ 7.076, 45.455 ], [ 7.083, 45.47 ], [ 7.108, 45.466 ], [ 7.105, 45.456 ], [ 7.12, 45.435 ], [ 7.164, 45.424 ], [ 7.19, 45.406 ], [ 7.173, 45.385 ], [ 7.168, 45.359 ], [ 7.142, 45.351 ], [ 7.144, 45.332 ], [ 7.12, 45.33 ], [ 7.118, 45.313 ] ] ] } },
{ "type": "Feature", "properties": { "code": 12, "mountain": "Alpes du Nord", "title": "Grandes-Rousses", "title_s": "G-Rou", "id_mf": "OPP12" }, "geometry": { "type": "Polygon", "coordinates": [ [ [ 6.497, 45.156 ], [ 6.486, 45.148 ], [ 6.478, 45.138 ], [ 6.468, 45.124 ], [ 6.456, 45.107 ], [ 6.448, 45.089 ], [ 6.44, 45.073 ], [ 6.436, 45.063 ], [ 6.433, 45.056 ], [ 6.427, 45.034 ], [ 6.425, 45.026 ], [ 6.411, 45.027 ], [ 6.389, 45.03 ], [ 6.361, 45.032 ], [ 6.337, 45.034 ], [ 6.308, 45.037 ], [ 6.286, 45.038 ], [ 6.261, 45.038 ], [ 6.225, 45.038 ], [ 6.215, 45.037 ], [ 6.194, 45.036 ], [ 6.155, 45.038 ], [ 6.129, 45.041 ], [ 6.103, 45.043 ], [ 6.086, 45.036 ], [ 6.07, 45.027 ], [ 6.045, 45.027 ], [ 6.031, 45.038 ], [ 6.026, 45.054 ], [ 6.021, 45.071 ], [ 6.015, 45.09 ], [ 6.011, 45.105 ], [ 5.998, 45.114 ], [ 6.022, 45.115 ], [ 6.038, 45.127 ], [ 6.049, 45.144 ], [ 6.042, 45.165 ], [ 6.028, 45.18 ], [ 6.029, 45.194 ], [ 6.043, 45.205 ], [ 6.065, 45.206 ], [ 6.085, 45.203 ], [ 6.108, 45.205 ], [ 6.123, 45.214 ], [ 6.14, 45.225 ], [ 6.155, 45.233 ], [ 6.17, 45.243 ], [ 6.184, 45.254 ], [ 6.2, 45.28 ], [ 6.205, 45.24 ], [ 6.208, 45.226 ], [ 6.213, 45.21 ], [ 6.224, 45.193 ], [ 6.236, 45.182 ], [ 6.257, 45.171 ], [ 6.282, 45.161 ], [ 6.308, 45.154 ], [ 6.33, 45.148 ], [ 6.358, 45.144 ], [ 6.387, 45.141 ], [ 6.409, 45.143 ], [ 6.436, 45.148 ], [ 6.461, 45.148 ], [ 6.497, 45.156 ] ] ] } },
{ "type": "Feature", "properties": { "code": 13, "mountain": "Alpes du Sud", "title": "Thabor", "title_s": "Thabo", "id_mf": "OPP13" }, "geometry": { "type": "Polygon", "coordinates": [ [ [ 6.632, 45.102 ], [ 6.636, 45.102 ], [ 6.675, 45.023 ], [ 6.748, 45.017 ], [ 6.755, 44.999 ], [ 6.74, 44.995 ], [ 6.741, 44.991 ], [ 6.753, 44.985 ], [ 6.771, 44.965 ], [ 6.753, 44.945 ], [ 6.757, 44.914 ], [ 6.751, 44.912 ], [ 6.745, 44.913 ], [ 6.726, 44.912 ], [ 6.709, 44.91 ], [ 6.692, 44.907 ], [ 6.675, 44.905 ], [ 6.658, 44.9 ], [ 6.643, 44.898 ], [ 6.633, 44.894 ], [ 6.624, 44.886 ], [ 6.614, 44.892 ], [ 6.6, 44.9 ], [ 6.586, 44.91 ], [ 6.574, 44.921 ], [ 6.558, 44.929 ], [ 6.545, 44.939 ], [ 6.536, 44.949 ], [ 6.526, 44.957 ], [ 6.514, 44.968 ], [ 6.502, 44.978 ], [ 6.488, 44.988 ], [ 6.475, 44.998 ], [ 6.461, 45.007 ], [ 6.448, 45.019 ], [ 6.437, 45.028 ], [ 6.427, 45.034 ], [ 6.433, 45.056 ], [ 6.436, 45.063 ], [ 6.44, 45.073 ], [ 6.448, 45.089 ], [ 6.456, 45.107 ], [ 6.468, 45.124 ], [ 6.478, 45.138 ], [ 6.486, 45.148 ], [ 6.497, 45.156 ], [ 6.517, 45.153 ], [ 6.541, 45.151 ], [ 6.568, 45.152 ], [ 6.585, 45.148 ], [ 6.601, 45.133 ], [ 6.612, 45.12 ], [ 6.616, 45.116 ], [ 6.628, 45.106 ], [ 6.632, 45.102 ] ] ] } },
{ "type": "Feature", "properties": { "code": 14, "mountain": "Alpes du Nord", "title": "Vercors", "title_s": "Verco", "id_mf": "OPP14" }, "geometry": { "type": "Polygon", "coordinates": [ [ [ 5.73, 45.18 ], [ 5.728, 45.166 ], [ 5.724, 45.152 ], [ 5.72, 45.136 ], [ 5.715, 45.12 ], [ 5.699, 45.105 ], [ 5.68, 45.09 ], [ 5.666, 45.064 ], [ 5.653, 45.033 ], [ 5.646, 45.012 ], [ 5.638, 44.981 ], [ 5.63, 44.954 ], [ 5.626, 44.923 ], [ 5.624, 44.898 ], [ 5.621, 44.878 ], [ 5.622, 44.85 ], [ 5.619, 44.831 ], [ 5.621, 44.814 ], [ 5.622, 44.796 ], [ 5.612, 44.783 ], [ 5.595, 44.774 ], [ 5.58, 44.755 ], [ 5.526, 44.722 ], [ 5.498, 44.714 ], [ 5.467, 44.71 ], [ 5.446, 44.727 ], [ 5.437, 44.747 ], [ 5.439, 44.767 ], [ 5.436, 44.788 ], [ 5.422, 44.805 ], [ 5.409, 44.816 ], [ 5.351, 44.819 ], [ 5.327, 44.825 ], [ 5.322, 44.843 ], [ 5.322, 44.859 ], [ 5.3, 44.865 ], [ 5.277, 44.862 ], [ 5.257, 44.853 ], [ 5.253, 44.869 ], [ 5.258, 44.913 ], [ 5.259, 44.936 ], [ 5.264, 44.957 ], [ 5.275, 44.976 ], [ 5.28, 44.998 ], [ 5.283, 45.02 ], [ 5.29, 45.044 ], [ 5.298, 45.07 ], [ 5.315, 45.093 ], [ 5.344, 45.126 ], [ 5.361, 45.14 ], [ 5.408, 45.169 ], [ 5.439, 45.183 ], [ 5.464, 45.199 ], [ 5.486, 45.22 ], [ 5.496, 45.235 ], [ 5.511, 45.253 ], [ 5.526, 45.268 ], [ 5.542, 45.282 ], [ 5.566, 45.289 ], [ 5.593, 45.292 ], [ 5.623, 45.277 ], [ 5.645, 45.253 ], [ 5.667, 45.231 ], [ 5.688, 45.204 ], [ 5.713, 45.177 ], [ 5.73, 45.18 ] ] ] } },
{ "type": "Feature", "properties": { "code": 15, "mountain": "Alpes du Nord", "title": "Oisans", "title_s": "Oisan", "id_mf": "OPP15" }, "geometry": { "type": "Polygon", "coordinates": [ [ [ 5.998, 45.114 ], [ 6.011, 45.105 ], [ 6.015, 45.09 ], [ 6.021, 45.071 ], [ 6.026, 45.054 ], [ 6.031, 45.038 ], [ 6.045, 45.027 ], [ 6.07, 45.027 ], [ 6.086, 45.036 ], [ 6.103, 45.043 ], [ 6.129, 45.041 ], [ 6.155, 45.038 ], [ 6.194, 45.036 ], [ 6.215, 45.037 ], [ 6.225, 45.038 ], [ 6.261, 45.038 ], [ 6.286, 45.038 ], [ 6.308, 45.037 ], [ 6.337, 45.034 ], [ 6.361, 45.032 ], [ 6.389, 45.03 ], [ 6.411, 45.027 ], [ 6.425, 45.026 ], [ 6.401, 44.998 ], [ 6.38, 44.982 ], [ 6.372, 44.954 ], [ 6.363, 44.937 ], [ 6.361, 44.931 ], [ 6.342, 44.906 ], [ 6.319, 44.877 ], [ 6.314, 44.872 ], [ 6.297, 44.854 ], [ 6.267, 44.83 ], [ 6.233, 44.823 ], [ 6.193, 44.823 ], [ 6.146, 44.811 ], [ 6.115, 44.795 ], [ 6.079, 44.779 ], [ 6.031, 44.78 ], [ 5.993, 44.796 ], [ 5.969, 44.811 ], [ 5.959, 44.817 ], [ 5.92, 44.828 ], [ 5.881, 44.833 ], [ 5.849, 44.844 ], [ 5.814, 44.854 ], [ 5.777, 44.859 ], [ 5.734, 44.868 ], [ 5.691, 44.873 ], [ 5.654, 44.876 ], [ 5.621, 44.878 ], [ 5.624, 44.898 ], [ 5.626, 44.923 ], [ 5.63, 44.954 ], [ 5.638, 44.981 ], [ 5.646, 45.012 ], [ 5.653, 45.033 ], [ 5.666, 45.064 ], [ 5.68, 45.09 ], [ 5.699, 45.105 ], [ 5.715, 45.12 ], [ 5.721, 45.104 ], [ 5.731, 45.086 ], [ 5.74, 45.065 ], [ 5.763, 45.047 ], [ 5.796, 45.042 ], [ 5.827, 45.041 ], [ 5.85, 45.051 ], [ 5.874, 45.063 ], [ 5.894, 45.081 ], [ 5.914, 45.093 ], [ 5.937, 45.103 ], [ 5.952, 45.113 ], [ 5.971, 45.117 ], [ 5.998, 45.114 ] ] ] } },
{ "type": "Feature", "properties": { "code": 16, "mountain": "Alpes du Sud", "title": "Pelvoux", "title_s": "Pelvo", "id_mf": "OPP16" }, "geometry": { "type": "Polygon", "coordinates": [ [ [ 6.624, 44.886 ], [ 6.624, 44.886 ], [ 6.612, 44.878 ], [ 6.603, 44.871 ], [ 6.59, 44.863 ], [ 6.577, 44.856 ], [ 6.569, 44.844 ], [ 6.566, 44.832 ], [ 6.563, 44.819 ], [ 6.56, 44.804 ], [ 6.557, 44.789 ], [ 6.559, 44.776 ], [ 6.564, 44.767 ], [ 6.569, 44.755 ], [ 6.558, 44.745 ], [ 6.551, 44.734 ], [ 6.538, 44.722 ], [ 6.512, 44.694 ], [ 6.489, 44.669 ], [ 6.469, 44.649 ], [ 6.455, 44.631 ], [ 6.437, 44.618 ], [ 6.426, 44.641 ], [ 6.411, 44.665 ], [ 6.399, 44.69 ], [ 6.389, 44.714 ], [ 6.383, 44.732 ], [ 6.375, 44.752 ], [ 6.365, 44.771 ], [ 6.349, 44.796 ], [ 6.337, 44.82 ], [ 6.331, 44.838 ], [ 6.323, 44.858 ], [ 6.322, 44.865 ], [ 6.319, 44.877 ], [ 6.342, 44.906 ], [ 6.361, 44.931 ], [ 6.363, 44.937 ], [ 6.372, 44.954 ], [ 6.38, 44.982 ], [ 6.401, 44.998 ], [ 6.425, 45.026 ], [ 6.427, 45.034 ], [ 6.437, 45.028 ], [ 6.448, 45.019 ], [ 6.461, 45.007 ], [ 6.475, 44.998 ], [ 6.488, 44.988 ], [ 6.502, 44.978 ], [ 6.514, 44.968 ], [ 6.526, 44.957 ], [ 6.536, 44.949 ], [ 6.545, 44.939 ], [ 6.558, 44.929 ], [ 6.574, 44.921 ], [ 6.586, 44.91 ], [ 6.6, 44.9 ], [ 6.614, 44.892 ], [ 6.624, 44.886 ] ] ] } },
{ "type": "Feature", "properties": { "code": 17, "mountain": "Alpes du Sud", "title": "Queyras", "title_s": "Queyr", "id_mf": "OPP17" }, "geometry": { "type": "Polygon", "coordinates": [ [ [ 6.751, 44.912 ], [ 6.751, 44.912 ], [ 6.757, 44.911 ], [ 6.757, 44.907 ], [ 6.777, 44.903 ], [ 6.843, 44.862 ], [ 6.888, 44.849 ], [ 6.917, 44.847 ], [ 6.938, 44.864 ], [ 6.987, 44.846 ], [ 7.008, 44.842 ], [ 7.027, 44.822 ], [ 7.005, 44.79 ], [ 7.028, 44.771 ], [ 7.036, 44.724 ], [ 7.073, 44.713 ], [ 7.087, 44.681 ], [ 7.079, 44.678 ], [ 7.036, 44.692 ], [ 7.008, 44.687 ], [ 6.998, 44.691 ], [ 6.967, 44.679 ], [ 6.955, 44.656 ], [ 6.949, 44.656 ], [ 6.929, 44.657 ], [ 6.908, 44.657 ], [ 6.891, 44.658 ], [ 6.873, 44.657 ], [ 6.86, 44.656 ], [ 6.858, 44.656 ], [ 6.843, 44.656 ], [ 6.828, 44.656 ], [ 6.811, 44.655 ], [ 6.794, 44.655 ], [ 6.778, 44.657 ], [ 6.76, 44.658 ], [ 6.743, 44.66 ], [ 6.718, 44.661 ], [ 6.701, 44.662 ], [ 6.685, 44.663 ], [ 6.671, 44.665 ], [ 6.649, 44.668 ], [ 6.633, 44.672 ], [ 6.619, 44.676 ], [ 6.606, 44.682 ], [ 6.599, 44.693 ], [ 6.594, 44.702 ], [ 6.588, 44.712 ], [ 6.582, 44.723 ], [ 6.577, 44.734 ], [ 6.572, 44.746 ], [ 6.569, 44.755 ], [ 6.564, 44.767 ], [ 6.559, 44.776 ], [ 6.557, 44.789 ], [ 6.56, 44.804 ], [ 6.563, 44.819 ], [ 6.566, 44.832 ], [ 6.569, 44.844 ], [ 6.577, 44.856 ], [ 6.59, 44.863 ], [ 6.603, 44.871 ], [ 6.612, 44.878 ], [ 6.624, 44.886 ], [ 6.633, 44.894 ], [ 6.643, 44.898 ], [ 6.658, 44.9 ], [ 6.675, 44.905 ], [ 6.709, 44.91 ], [ 6.726, 44.912 ], [ 6.745, 44.913 ], [ 6.751, 44.912 ] ] ] } },
{ "type": "Feature", "properties": { "code": 18, "mountain": "Alpes du Sud", "title": "Devoluy", "title_s": "Devol", "id_mf": "OPP18" }, "geometry": { "type": "Polygon", "coordinates": [ [ [ 5.993, 44.796 ], [ 6.009, 44.77 ], [ 6.026, 44.742 ], [ 6.042, 44.716 ], [ 6.057, 44.698 ], [ 6.083, 44.669 ], [ 6.111, 44.645 ], [ 6.135, 44.623 ], [ 6.16, 44.607 ], [ 6.183, 44.584 ], [ 6.164, 44.583 ], [ 6.14, 44.58 ], [ 6.117, 44.579 ], [ 6.091, 44.572 ], [ 6.058, 44.562 ], [ 6.039, 44.55 ], [ 6.008, 44.548 ], [ 5.97, 44.549 ], [ 5.902, 44.557 ], [ 5.872, 44.555 ], [ 5.854, 44.543 ], [ 5.824, 44.538 ], [ 5.794, 44.535 ], [ 5.733, 44.562 ], [ 5.706, 44.578 ], [ 5.687, 44.595 ], [ 5.667, 44.612 ], [ 5.659, 44.632 ], [ 5.649, 44.651 ], [ 5.649, 44.651 ], [ 5.639, 44.669 ], [ 5.627, 44.687 ], [ 5.625, 44.706 ], [ 5.628, 44.729 ], [ 5.629, 44.749 ], [ 5.628, 44.775 ], [ 5.622, 44.796 ], [ 5.621, 44.814 ], [ 5.619, 44.831 ], [ 5.622, 44.85 ], [ 5.621, 44.878 ], [ 5.654, 44.876 ], [ 5.691, 44.873 ], [ 5.734, 44.868 ], [ 5.777, 44.859 ], [ 5.814, 44.854 ], [ 5.849, 44.844 ], [ 5.881, 44.833 ], [ 5.92, 44.828 ], [ 5.959, 44.817 ], [ 5.969, 44.811 ], [ 5.993, 44.796 ] ] ] } },
{ "type": "Feature", "properties": { "code": 19, "mountain": "Alpes du Sud", "title": "Champsaur", "title_s": "Champ", "id_mf": "OPP19" }, "geometry": { "type": "Polygon", "coordinates": [ [ [ 6.437, 44.618 ], [ 6.411, 44.614 ], [ 6.382, 44.606 ], [ 6.349, 44.594 ], [ 6.311, 44.592 ], [ 6.278, 44.578 ], [ 6.248, 44.558 ], [ 6.223, 44.55 ], [ 6.202, 44.569 ], [ 6.183, 44.584 ], [ 6.16, 44.607 ], [ 6.135, 44.623 ], [ 6.111, 44.645 ], [ 6.083, 44.669 ], [ 6.057, 44.698 ], [ 6.042, 44.716 ], [ 6.026, 44.742 ], [ 6.009, 44.77 ], [ 5.993, 44.796 ], [ 6.031, 44.78 ], [ 6.079, 44.779 ], [ 6.115, 44.795 ], [ 6.146, 44.811 ], [ 6.193, 44.823 ], [ 6.233, 44.823 ], [ 6.267, 44.83 ], [ 6.297, 44.854 ], [ 6.314, 44.872 ], [ 6.319, 44.877 ], [ 6.322, 44.865 ], [ 6.323, 44.858 ], [ 6.331, 44.838 ], [ 6.337, 44.82 ], [ 6.349, 44.796 ], [ 6.365, 44.771 ], [ 6.375, 44.752 ], [ 6.383, 44.732 ], [ 6.389, 44.714 ], [ 6.399, 44.69 ], [ 6.411, 44.665 ], [ 6.426, 44.641 ], [ 6.437, 44.618 ] ] ] } },
{ "type": "Feature", "properties": { "code": 20, "mountain": "Alpes du Sud", "title": "Embrunnais Parpaillon", "title_s": "EmPar", "id_mf": "OPP20" }, "geometry": { "type": "Polygon", "coordinates": [ [ [ 6.671, 44.665 ], [ 6.685, 44.663 ], [ 6.701, 44.662 ], [ 6.718, 44.661 ], [ 6.743, 44.66 ], [ 6.76, 44.658 ], [ 6.778, 44.657 ], [ 6.794, 44.655 ], [ 6.811, 44.655 ], [ 6.828, 44.656 ], [ 6.843, 44.656 ], [ 6.858, 44.656 ], [ 6.86, 44.656 ], [ 6.833, 44.643 ], [ 6.811, 44.634 ], [ 6.781, 44.625 ], [ 6.762, 44.618 ], [ 6.737, 44.605 ], [ 6.712, 44.596 ], [ 6.684, 44.585 ], [ 6.656, 44.577 ], [ 6.638, 44.567 ], [ 6.627, 44.549 ], [ 6.622, 44.53 ], [ 6.61, 44.503 ], [ 6.594, 44.483 ], [ 6.577, 44.454 ], [ 6.558, 44.445 ], [ 6.525, 44.451 ], [ 6.485, 44.457 ], [ 6.454, 44.461 ], [ 6.422, 44.468 ], [ 6.397, 44.471 ], [ 6.367, 44.472 ], [ 6.337, 44.476 ], [ 6.313, 44.477 ], [ 6.29, 44.471 ], [ 6.272, 44.462 ], [ 6.259, 44.455 ], [ 6.243, 44.484 ], [ 6.236, 44.5 ], [ 6.228, 44.516 ], [ 6.223, 44.533 ], [ 6.223, 44.55 ], [ 6.248, 44.558 ], [ 6.278, 44.578 ], [ 6.311, 44.592 ], [ 6.349, 44.594 ], [ 6.382, 44.606 ], [ 6.411, 44.614 ], [ 6.437, 44.618 ], [ 6.455, 44.631 ], [ 6.469, 44.649 ], [ 6.489, 44.669 ], [ 6.512, 44.694 ], [ 6.538, 44.722 ], [ 6.551, 44.734 ], [ 6.558, 44.745 ], [ 6.569, 44.755 ], [ 6.572, 44.746 ], [ 6.577, 44.734 ], [ 6.582, 44.723 ], [ 6.588, 44.712 ], [ 6.594, 44.702 ], [ 6.599, 44.693 ], [ 6.606, 44.682 ], [ 6.619, 44.676 ], [ 6.633, 44.672 ], [ 6.649, 44.668 ], [ 6.671, 44.665 ] ] ] } },
{ "type": "Feature", "properties": { "code": 21, "mountain": "Alpes du Sud", "title": "Ubaye", "title_s": "Ubaye", "id_mf": "OPP21" }, "geometry": { "type": "Polygon", "coordinates": [ [ [ 6.955, 44.656 ], [ 6.955, 44.656 ], [ 6.972, 44.621 ], [ 6.94, 44.599 ], [ 6.937, 44.573 ], [ 6.86, 44.53 ], [ 6.863, 44.506 ], [ 6.878, 44.489 ], [ 6.913, 44.467 ], [ 6.919, 44.448 ], [ 6.947, 44.439 ], [ 6.949, 44.428 ], [ 6.903, 44.419 ], [ 6.894, 44.361 ], [ 6.888, 44.361 ], [ 6.868, 44.357 ], [ 6.843, 44.356 ], [ 6.821, 44.355 ], [ 6.802, 44.338 ], [ 6.791, 44.319 ], [ 6.774, 44.309 ], [ 6.764, 44.304 ], [ 6.728, 44.301 ], [ 6.695, 44.298 ], [ 6.669, 44.296 ], [ 6.63, 44.294 ], [ 6.596, 44.292 ], [ 6.556, 44.298 ], [ 6.519, 44.306 ], [ 6.486, 44.31 ], [ 6.457, 44.316 ], [ 6.429, 44.321 ], [ 6.404, 44.337 ], [ 6.38, 44.354 ], [ 6.322, 44.405 ], [ 6.297, 44.424 ], [ 6.277, 44.439 ], [ 6.259, 44.455 ], [ 6.272, 44.462 ], [ 6.29, 44.471 ], [ 6.313, 44.477 ], [ 6.337, 44.476 ], [ 6.367, 44.472 ], [ 6.397, 44.471 ], [ 6.422, 44.468 ], [ 6.454, 44.461 ], [ 6.485, 44.457 ], [ 6.525, 44.451 ], [ 6.558, 44.445 ], [ 6.577, 44.454 ], [ 6.594, 44.483 ], [ 6.61, 44.503 ], [ 6.622, 44.53 ], [ 6.627, 44.549 ], [ 6.638, 44.567 ], [ 6.656, 44.577 ], [ 6.684, 44.585 ], [ 6.712, 44.596 ], [ 6.737, 44.605 ], [ 6.762, 44.618 ], [ 6.781, 44.625 ], [ 6.811, 44.634 ], [ 6.833, 44.643 ], [ 6.86, 44.656 ], [ 6.873, 44.657 ], [ 6.891, 44.658 ], [ 6.908, 44.657 ], [ 6.929, 44.657 ], [ 6.949, 44.656 ], [ 6.955, 44.656 ] ] ] } },
{ "type": "Feature", "properties": { "code": 22, "mountain": "Alpes du Sud", "title": "Haut-Var Haut-Verdon", "title_s": "HVaVe", "id_mf": "OPP22" }, "geometry": { "type": "Polygon", "coordinates": [ [ [ 7.113, 44.089 ], [ 7.113, 44.076 ], [ 7.12, 44.057 ], [ 7.129, 44.037 ], [ 7.145, 44.017 ], [ 7.151, 43.995 ], [ 7.154, 43.969 ], [ 7.143, 43.947 ], [ 7.11, 43.943 ], [ 7.07, 43.944 ], [ 6.987, 43.954 ], [ 6.947, 43.955 ], [ 6.91, 43.959 ], [ 6.878, 43.961 ], [ 6.839, 43.965 ], [ 6.8, 43.968 ], [ 6.765, 43.971 ], [ 6.726, 43.975 ], [ 6.687, 43.98 ], [ 6.662, 43.994 ], [ 6.642, 44.01 ], [ 6.625, 44.028 ], [ 6.597, 44.041 ], [ 6.561, 44.053 ], [ 6.531, 44.067 ], [ 6.506, 44.081 ], [ 6.481, 44.1 ], [ 6.45, 44.113 ], [ 6.466, 44.13 ], [ 6.479, 44.148 ], [ 6.487, 44.173 ], [ 6.489, 44.198 ], [ 6.49, 44.22 ], [ 6.483, 44.24 ], [ 6.476, 44.261 ], [ 6.457, 44.28 ], [ 6.445, 44.303 ], [ 6.429, 44.321 ], [ 6.457, 44.316 ], [ 6.486, 44.31 ], [ 6.519, 44.306 ], [ 6.556, 44.298 ], [ 6.596, 44.292 ], [ 6.63, 44.294 ], [ 6.669, 44.296 ], [ 6.695, 44.298 ], [ 6.728, 44.301 ], [ 6.764, 44.304 ], [ 6.774, 44.309 ], [ 6.809, 44.301 ], [ 6.838, 44.291 ], [ 6.864, 44.278 ], [ 6.893, 44.264 ], [ 6.924, 44.245 ], [ 6.952, 44.226 ], [ 6.977, 44.207 ], [ 7.0, 44.191 ], [ 7.038, 44.184 ], [ 7.075, 44.168 ], [ 7.091, 44.144 ], [ 7.106, 44.116 ], [ 7.113, 44.089 ] ] ] } },
{ "type": "Feature", "properties": { "code": 23, "mountain": "Alpes du Sud", "title": "Mercantour", "title_s": "Merca", "id_mf": "OPP23" }, "geometry": { "type": "Polygon", "coordinates": [ [ [ 7.113, 44.089 ], [ 7.106, 44.116 ], [ 7.091, 44.144 ], [ 7.075, 44.168 ], [ 7.038, 44.184 ], [ 7.0, 44.191 ], [ 6.977, 44.207 ], [ 6.952, 44.226 ], [ 6.924, 44.245 ], [ 6.893, 44.264 ], [ 6.864, 44.278 ], [ 6.838, 44.291 ], [ 6.809, 44.301 ], [ 6.774, 44.309 ], [ 6.791, 44.319 ], [ 6.802, 44.338 ], [ 6.821, 44.355 ], [ 6.843, 44.356 ], [ 6.868, 44.357 ], [ 6.888, 44.361 ], [ 6.895, 44.36 ], [ 6.919, 44.346 ], [ 6.966, 44.313 ], [ 6.963, 44.294 ], [ 7.002, 44.281 ], [ 7.006, 44.244 ], [ 7.023, 44.231 ], [ 7.035, 44.232 ], [ 7.042, 44.223 ], [ 7.078, 44.232 ], [ 7.145, 44.201 ], [ 7.197, 44.199 ], [ 7.2, 44.186 ], [ 7.211, 44.181 ], [ 7.224, 44.168 ], [ 7.242, 44.174 ], [ 7.265, 44.148 ], [ 7.346, 44.146 ], [ 7.361, 44.117 ], [ 7.39, 44.118 ], [ 7.432, 44.115 ], [ 7.437, 44.129 ], [ 7.568, 44.153 ], [ 7.621, 44.147 ], [ 7.634, 44.161 ], [ 7.638, 44.178 ], [ 7.686, 44.174 ], [ 7.679, 44.143 ], [ 7.675, 44.117 ], [ 7.687, 44.112 ], [ 7.723, 44.08 ], [ 7.706, 44.04 ], [ 7.666, 44.026 ], [ 7.667, 44.01 ], [ 7.675, 43.997 ], [ 7.663, 43.984 ], [ 7.656, 43.982 ], [ 7.582, 43.985 ], [ 7.538, 43.991 ], [ 7.491, 43.995 ], [ 7.445, 44.004 ], [ 7.409, 44.009 ], [ 7.368, 44.015 ], [ 7.248, 44.04 ], [ 7.209, 44.046 ], [ 7.172, 44.058 ], [ 7.138, 44.073 ], [ 7.113, 44.089 ] ] ] } },
{ "type": "Feature", "properties": { "code": 40, "mountain": "Corse", "title": "Cinto Rotondo", "title_s": "CinRo", "id_mf": "OPP40" }, "geometry": { "type": "Polygon", "coordinates": [ [ [ 9.143, 42.144 ], [ 9.127, 42.132 ], [ 9.118, 42.12 ], [ 9.107, 42.107 ], [ 9.096, 42.097 ], [ 9.076, 42.091 ], [ 9.058, 42.082 ], [ 9.042, 42.076 ], [ 9.03, 42.084 ], [ 9.015, 42.095 ], [ 8.99, 42.12 ], [ 8.921, 42.182 ], [ 8.905, 42.192 ], [ 8.891, 42.206 ], [ 8.876, 42.216 ], [ 8.84, 42.238 ], [ 8.822, 42.249 ], [ 8.805, 42.258 ], [ 8.779, 42.269 ], [ 8.787, 42.308 ], [ 8.788, 42.32 ], [ 8.791, 42.331 ], [ 8.795, 42.361 ], [ 8.798, 42.383 ], [ 8.798, 42.394 ], [ 8.799, 42.404 ], [ 8.802, 42.414 ], [ 8.808, 42.425 ], [ 8.813, 42.434 ], [ 8.817, 42.444 ], [ 8.824, 42.452 ], [ 8.831, 42.46 ], [ 8.85, 42.488 ], [ 8.857, 42.495 ], [ 8.864, 42.504 ], [ 8.889, 42.519 ], [ 8.902, 42.527 ], [ 8.925, 42.543 ], [ 8.935, 42.55 ], [ 8.944, 42.553 ], [ 8.968, 42.549 ], [ 8.985, 42.555 ], [ 9.008, 42.553 ], [ 9.028, 42.549 ], [ 9.048, 42.543 ], [ 9.071, 42.536 ], [ 9.092, 42.529 ], [ 9.116, 42.525 ], [ 9.13, 42.52 ], [ 9.11, 42.49 ], [ 9.099, 42.478 ], [ 9.095, 42.465 ], [ 9.104, 42.457 ], [ 9.12, 42.446 ], [ 9.125, 42.439 ], [ 9.108, 42.417 ], [ 9.096, 42.407 ], [ 9.088, 42.393 ], [ 9.084, 42.379 ], [ 9.097, 42.368 ], [ 9.113, 42.359 ], [ 9.127, 42.354 ], [ 9.138, 42.35 ], [ 9.134, 42.338 ], [ 9.13, 42.326 ], [ 9.122, 42.315 ], [ 9.108, 42.303 ], [ 9.106, 42.291 ], [ 9.12, 42.281 ], [ 9.136, 42.277 ], [ 9.156, 42.275 ], [ 9.16, 42.261 ], [ 9.162, 42.245 ], [ 9.159, 42.229 ], [ 9.156, 42.21 ], [ 9.154, 42.194 ], [ 9.152, 42.179 ], [ 9.152, 42.165 ], [ 9.152, 42.153 ], [ 9.143, 42.144 ] ] ] } },
{ "type": "Feature", "properties": { "code": 41, "mountain": "Corse", "title": "Renoso Incudine", "title_s": "RenIn", "id_mf": "OPP41" }, "geometry": { "type": "Polygon", "coordinates": [ [ [ 9.143, 42.144 ], [ 9.163, 42.15 ], [ 9.178, 42.159 ], [ 9.194, 42.163 ], [ 9.205, 42.169 ], [ 9.22, 42.17 ], [ 9.233, 42.169 ], [ 9.242, 42.164 ], [ 9.254, 42.159 ], [ 9.26, 42.151 ], [ 9.267, 42.141 ], [ 9.273, 42.13 ], [ 9.274, 42.109 ], [ 9.272, 42.096 ], [ 9.268, 42.085 ], [ 9.267, 42.061 ], [ 9.263, 42.049 ], [ 9.261, 42.034 ], [ 9.259, 42.02 ], [ 9.256, 42.005 ], [ 9.255, 41.991 ], [ 9.256, 41.978 ], [ 9.256, 41.966 ], [ 9.256, 41.954 ], [ 9.258, 41.917 ], [ 9.26, 41.906 ], [ 9.276, 41.874 ], [ 9.282, 41.865 ], [ 9.278, 41.842 ], [ 9.274, 41.83 ], [ 9.27, 41.815 ], [ 9.265, 41.801 ], [ 9.258, 41.791 ], [ 9.252, 41.781 ], [ 9.247, 41.77 ], [ 9.242, 41.759 ], [ 9.236, 41.734 ], [ 9.233, 41.722 ], [ 9.23, 41.709 ], [ 9.228, 41.7 ], [ 9.216, 41.705 ], [ 9.203, 41.715 ], [ 9.194, 41.726 ], [ 9.184, 41.737 ], [ 9.172, 41.75 ], [ 9.159, 41.762 ], [ 9.142, 41.765 ], [ 9.096, 41.768 ], [ 9.083, 41.781 ], [ 9.072, 41.817 ], [ 9.068, 41.841 ], [ 9.065, 41.854 ], [ 9.088, 41.883 ], [ 9.098, 41.891 ], [ 9.121, 41.915 ], [ 9.131, 41.921 ], [ 9.14, 41.932 ], [ 9.128, 41.934 ], [ 9.115, 41.931 ], [ 9.102, 41.923 ], [ 9.055, 41.916 ], [ 9.049, 41.926 ], [ 9.045, 41.938 ], [ 9.038, 41.95 ], [ 9.03, 41.962 ], [ 9.026, 41.974 ], [ 9.03, 41.997 ], [ 9.038, 42.007 ], [ 9.048, 42.014 ], [ 9.043, 42.024 ], [ 9.028, 42.044 ], [ 9.017, 42.053 ], [ 9.021, 42.064 ], [ 9.027, 42.073 ], [ 9.042, 42.076 ], [ 9.058, 42.082 ], [ 9.076, 42.091 ], [ 9.096, 42.097 ], [ 9.107, 42.107 ], [ 9.118, 42.12 ], [ 9.127, 42.132 ], [ 9.143, 42.144 ] ] ] } },
{ "type": "Feature", "properties": { "code": 46, "mountain": "Vosges", "title": "Hautes-Vosges", "title_s": "H-Vos", "id_mf": null }, "geometry": { "type": "Polygon", "coordinates": [ [ [ 7.099, 48.256 ], [ 7.072, 48.263 ], [ 7.121, 48.311 ], [ 7.154, 48.318 ], [ 7.135, 48.321 ], [ 7.165, 48.354 ], [ 7.213, 48.36 ], [ 7.235, 48.352 ], [ 7.226, 48.341 ], [ 7.239, 48.332 ], [ 7.204, 48.323 ], [ 7.308, 48.321 ], [ 7.33, 48.294 ], [ 7.291, 48.283 ], [ 7.224, 48.295 ], [ 7.249, 48.278 ], [ 7.206, 48.269 ], [ 7.167, 48.244 ], [ 7.177, 48.239 ], [ 7.217, 48.252 ], [ 7.314, 48.251 ], [ 7.323, 48.247 ], [ 7.337, 48.253 ], [ 7.35, 48.252 ], [ 7.349, 48.246 ], [ 7.33, 48.243 ], [ 7.324, 48.239 ], [ 7.299, 48.237 ], [ 7.31, 48.218 ], [ 7.328, 48.212 ], [ 7.311, 48.212 ], [ 7.308, 48.205 ], [ 7.253, 48.208 ], [ 7.263, 48.203 ], [ 7.299, 48.196 ], [ 7.292, 48.181 ], [ 7.28, 48.152 ], [ 7.27, 48.146 ], [ 7.257, 48.17 ], [ 7.25, 48.16 ], [ 7.232, 48.169 ], [ 7.224, 48.161 ], [ 7.208, 48.161 ], [ 7.199, 48.173 ], [ 7.187, 48.18 ], [ 7.196, 48.157 ], [ 7.18, 48.149 ], [ 7.165, 48.162 ], [ 7.162, 48.154 ], [ 7.173, 48.142 ], [ 7.164, 48.125 ], [ 7.201, 48.149 ], [ 7.217, 48.149 ], [ 7.236, 48.145 ], [ 7.234, 48.118 ], [ 7.262, 48.113 ], [ 7.217, 48.074 ], [ 7.185, 48.058 ], [ 7.167, 48.055 ], [ 7.14, 48.048 ], [ 7.099, 48.057 ], [ 7.07, 48.056 ], [ 7.102, 48.052 ], [ 7.119, 48.04 ], [ 7.08, 48.025 ], [ 7.051, 48.009 ], [ 7.087, 48.02 ], [ 7.166, 48.039 ], [ 7.194, 48.036 ], [ 7.182, 48.011 ], [ 7.216, 48.039 ], [ 7.269, 48.063 ], [ 7.275, 48.033 ], [ 7.231, 48.004 ], [ 7.194, 47.989 ], [ 7.184, 47.972 ], [ 7.191, 47.954 ], [ 7.173, 47.943 ], [ 7.137, 47.947 ], [ 7.13, 47.944 ], [ 7.176, 47.935 ], [ 7.174, 47.925 ], [ 7.159, 47.923 ], [ 7.175, 47.918 ], [ 7.189, 47.903 ], [ 7.175, 47.903 ], [ 7.175, 47.875 ], [ 7.157, 47.871 ], [ 7.18, 47.867 ], [ 7.18, 47.85 ], [ 7.12, 47.813 ], [ 7.096, 47.818 ], [ 7.092, 47.837 ], [ 7.038, 47.873 ], [ 7.004, 47.886 ], [ 6.982, 47.907 ], [ 6.963, 47.941 ], [ 6.956, 47.939 ], [ 6.972, 47.896 ], [ 6.951, 47.885 ], [ 6.934, 47.885 ], [ 6.905, 47.891 ], [ 6.86, 47.889 ], [ 6.853, 47.881 ], [ 6.836, 47.872 ], [ 6.818, 47.855 ], [ 6.813, 47.857 ], [ 6.806, 47.862 ], [ 6.802, 47.868 ], [ 6.795, 47.867 ], [ 6.779, 47.883 ], [ 6.675, 47.916 ], [ 6.639, 47.94 ], [ 6.642, 47.993 ], [ 6.687, 48.016 ], [ 6.723, 47.974 ], [ 6.738, 47.96 ], [ 6.731, 47.976 ], [ 6.736, 48.009 ], [ 6.68, 48.047 ], [ 6.637, 48.021 ], [ 6.6, 48.038 ], [ 6.642, 48.072 ], [ 6.61, 48.127 ], [ 6.689, 48.17 ], [ 6.826, 48.203 ], [ 6.907, 48.219 ], [ 6.979, 48.173 ], [ 6.968, 48.207 ], [ 7.046, 48.251 ], [ 7.05, 48.226 ], [ 7.077, 48.232 ], [ 7.099, 48.256 ] ] ] } },
{ "type": "Feature", "properties": { "code": 47, "mountain": "Vosges", "title": "Ballon d'Alsace", "title_s": "B-Als", "id_mf": null }, "geometry": { "type": "Polygon", "coordinates": [ [ [ 6.905, 47.891 ], [ 6.934, 47.885 ], [ 6.957, 47.878 ], [ 6.972, 47.867 ], [ 6.994, 47.878 ], [ 7.028, 47.869 ], [ 7.064, 47.834 ], [ 7.062, 47.826 ], [ 7.083, 47.812 ], [ 7.09, 47.801 ], [ 7.015, 47.766 ], [ 7.013, 47.784 ], [ 7.0, 47.783 ], [ 6.969, 47.789 ], [ 6.955, 47.805 ], [ 6.938, 47.81 ], [ 6.909, 47.807 ], [ 6.942, 47.8 ], [ 6.997, 47.754 ], [ 6.98, 47.741 ], [ 6.944, 47.729 ], [ 6.91, 47.727 ], [ 6.861, 47.735 ], [ 6.85, 47.753 ], [ 6.835, 47.748 ], [ 6.816, 47.757 ], [ 6.819, 47.729 ], [ 6.778, 47.735 ], [ 6.777, 47.703 ], [ 6.739, 47.731 ], [ 6.732, 47.748 ], [ 6.743, 47.763 ], [ 6.72, 47.746 ], [ 6.719, 47.727 ], [ 6.653, 47.719 ], [ 6.661, 47.731 ], [ 6.602, 47.726 ], [ 6.62, 47.758 ], [ 6.676, 47.75 ], [ 6.677, 47.761 ], [ 6.657, 47.76 ], [ 6.63, 47.771 ], [ 6.655, 47.794 ], [ 6.68, 47.801 ], [ 6.697, 47.796 ], [ 6.71, 47.798 ], [ 6.702, 47.798 ], [ 6.689, 47.802 ], [ 6.687, 47.81 ], [ 6.716, 47.83 ], [ 6.727, 47.845 ], [ 6.745, 47.86 ], [ 6.755, 47.871 ], [ 6.787, 47.875 ], [ 6.795, 47.867 ], [ 6.802, 47.868 ], [ 6.806, 47.862 ], [ 6.813, 47.857 ], [ 6.818, 47.855 ], [ 6.836, 47.872 ], [ 6.853, 47.881 ], [ 6.86, 47.889 ], [ 6.905, 47.891 ] ] ] } },
{ "type": "Feature", "properties": { "code": 50, "mountain": "Massif-Central", "title": "Monts du Forez", "title_s": "M-For", "id_mf": null }, "geometry": { "type": "Polygon", "coordinates": [ [ [ 3.6, 45.81 ], [ 3.713, 45.82 ], [ 3.703, 45.872 ], [ 3.774, 45.783 ], [ 3.872, 45.77 ], [ 3.959, 45.702 ], [ 4.025, 45.549 ], [ 4.069, 45.461 ], [ 3.968, 45.452 ], [ 3.91, 45.412 ], [ 3.892, 45.355 ], [ 3.785, 45.379 ], [ 3.78, 45.46 ], [ 3.79, 45.583 ], [ 3.6, 45.81 ] ] ] } },
{ "type": "Feature", "properties": { "code": 51, "mountain": "Massif-Central", "title": "Sancy", "title_s": "Sancy", "id_mf": null }, "geometry": { "type": "Polygon", "coordinates": [ [ [ 2.667, 45.358 ], [ 2.633, 45.445 ], [ 2.602, 45.633 ], [ 2.707, 45.798 ], [ 2.769, 45.723 ], [ 3.02, 45.66 ], [ 2.982, 45.567 ], [ 3.043, 45.53 ], [ 3.1, 45.52 ], [ 3.116, 45.224 ], [ 3.013, 45.138 ], [ 2.94, 45.2 ], [ 2.94, 45.219 ], [ 2.914, 45.252 ], [ 2.867, 45.277 ], [ 2.807, 45.33 ], [ 2.756, 45.336 ], [ 2.727, 45.349 ], [ 2.667, 45.358 ] ] ] } },
{ "type": "Feature", "properties": { "code": 52, "mountain": "Massif-Central", "title": "Monts du Cantal", "title_s": "M-Can", "id_mf": null }, "geometry": { "type": "Polygon", "coordinates": [ [ [ 2.667, 45.358 ], [ 2.727, 45.349 ], [ 2.756, 45.336 ], [ 2.807, 45.33 ], [ 2.867, 45.277 ], [ 2.914, 45.252 ], [ 2.94, 45.219 ], [ 2.94, 45.2 ], [ 3.013, 45.138 ], [ 3.14, 45.0 ], [ 3.104, 44.926 ], [ 2.781, 44.853 ], [ 2.566, 44.934 ], [ 2.417, 45.084 ], [ 2.456, 45.284 ], [ 2.667, 45.358 ] ] ] } },
{ "type": "Feature", "properties": { "code": 55, "mountain": "Jura", "title": "Haut-Doubs", "title_s": "H-Dou", "id_mf": null }, "geometry": { "type": "Polygon", "coordinates": [ [ [ 6.109, 46.654 ], [ 6.076, 46.69 ], [ 6.003, 46.741 ], [ 6.01, 46.82 ], [ 6.01, 46.86 ], [ 6.022, 46.869 ], [ 6.018, 46.873 ], [ 6.011, 46.874 ], [ 6.015, 46.887 ], [ 6.014, 46.897 ], [ 6.0, 46.9 ], [ 5.985, 46.911 ], [ 5.99, 46.923 ], [ 5.997, 46.929 ], [ 6.0, 46.935 ], [ 5.992, 46.938 ], [ 5.991, 46.941 ], [ 5.981, 46.942 ], [ 5.967, 46.946 ], [ 5.963, 46.951 ], [ 5.967, 46.955 ], [ 5.976, 46.958 ], [ 5.983, 46.966 ], [ 5.977, 46.97 ], [ 5.979, 46.976 ], [ 5.976, 46.977 ], [ 5.97, 46.983 ], [ 5.95, 46.984 ], [ 5.955, 46.992 ], [ 5.95, 46.991 ], [ 5.945, 46.985 ], [ 5.932, 46.988 ], [ 5.929, 46.979 ], [ 5.919, 46.981 ], [ 5.924, 46.988 ], [ 5.917, 46.99 ], [ 5.923, 46.996 ], [ 5.922, 47.009 ], [ 5.926, 47.018 ], [ 5.924, 47.019 ], [ 5.92, 47.016 ], [ 5.917, 47.005 ], [ 5.915, 47.002 ], [ 5.904, 47.001 ], [ 5.888, 47.001 ], [ 5.887, 47.008 ], [ 5.87, 47.01 ], [ 5.89, 47.03 ], [ 5.91, 47.06 ], [ 5.923, 47.098 ], [ 5.96, 47.19 ], [ 5.99, 47.2 ], [ 6.04, 47.21 ], [ 6.09, 47.25 ], [ 6.233, 47.296 ], [ 6.39, 47.35 ], [ 6.543, 47.379 ], [ 6.628, 47.403 ], [ 6.739, 47.463 ], [ 6.772, 47.435 ], [ 6.772, 47.396 ], [ 6.792, 47.431 ], [ 6.914, 47.47 ], [ 6.925, 47.468 ], [ 6.925, 47.464 ], [ 6.933, 47.458 ], [ 6.937, 47.447 ], [ 6.934, 47.44 ], [ 6.942, 47.431 ], [ 6.942, 47.414 ], [ 6.938, 47.406 ], [ 6.919, 47.405 ], [ 6.918, 47.4 ], [ 6.914, 47.396 ], [ 6.914, 47.388 ], [ 6.907, 47.383 ], [ 6.895, 47.38 ], [ 6.885, 47.373 ], [ 6.881, 47.352 ], [ 6.89, 47.354 ], [ 6.899, 47.358 ], [ 6.909, 47.359 ], [ 6.923, 47.355 ], [ 6.933, 47.358 ], [ 6.941, 47.357 ], [ 6.95, 47.358 ], [ 6.966, 47.359 ], [ 6.974, 47.36 ], [ 6.981, 47.362 ], [ 6.993, 47.363 ], [ 7.005, 47.367 ], [ 7.011, 47.373 ], [ 7.022, 47.371 ], [ 7.031, 47.37 ], [ 7.033, 47.364 ], [ 7.046, 47.363 ], [ 7.05, 47.355 ], [ 7.048, 47.348 ], [ 7.059, 47.344 ], [ 7.06, 47.341 ], [ 7.054, 47.336 ], [ 7.042, 47.333 ], [ 6.979, 47.313 ], [ 6.94, 47.293 ], [ 6.947, 47.243 ], [ 6.865, 47.179 ], [ 6.864, 47.171 ], [ 6.847, 47.168 ], [ 6.863, 47.165 ], [ 6.856, 47.156 ], [ 6.846, 47.151 ], [ 6.845, 47.149 ], [ 6.833, 47.144 ], [ 6.815, 47.134 ], [ 6.811, 47.13 ], [ 6.807, 47.13 ], [ 6.795, 47.125 ], [ 6.776, 47.12 ], [ 6.763, 47.119 ], [ 6.758, 47.117 ], [ 6.747, 47.109 ], [ 6.744, 47.105 ], [ 6.745, 47.101 ], [ 6.749, 47.095 ], [ 6.74, 47.088 ], [ 6.73, 47.091 ], [ 6.72, 47.088 ], [ 6.708, 47.084 ], [ 6.711, 47.078 ], [ 6.703, 47.07 ], [ 6.695, 47.066 ], [ 6.724, 47.049 ], [ 6.716, 47.048 ], [ 6.701, 47.037 ], [ 6.682, 47.035 ], [ 6.657, 47.024 ], [ 6.643, 47.002 ], [ 6.619, 46.991 ], [ 6.598, 46.993 ], [ 6.586, 46.988 ], [ 6.577, 46.983 ], [ 6.529, 46.971 ], [ 6.522, 46.972 ], [ 6.504, 46.966 ], [ 6.499, 46.975 ], [ 6.479, 46.965 ], [ 6.448, 46.936 ], [ 6.435, 46.928 ], [ 6.448, 46.912 ], [ 6.465, 46.897 ], [ 6.492, 46.888 ], [ 6.462, 46.86 ], [ 6.462, 46.851 ], [ 6.449, 46.838 ], [ 6.443, 46.824 ], [ 6.444, 46.815 ], [ 6.433, 46.815 ], [ 6.442, 46.798 ], [ 6.46, 46.789 ], [ 6.456, 46.775 ], [ 6.441, 46.766 ], [ 6.44, 46.76 ], [ 6.417, 46.751 ], [ 6.396, 46.749 ], [ 6.388, 46.733 ], [ 6.372, 46.731 ], [ 6.373, 46.726 ], [ 6.36, 46.722 ], [ 6.354, 46.713 ], [ 6.326, 46.706 ], [ 6.283, 46.691 ], [ 6.271, 46.686 ], [ 6.267, 46.677 ], [ 6.232, 46.653 ], [ 6.214, 46.64 ], [ 6.203, 46.637 ], [ 6.199, 46.628 ], [ 6.186, 46.623 ], [ 6.176, 46.614 ], [ 6.164, 46.611 ], [ 6.14, 46.598 ], [ 6.112, 46.578 ], [ 6.141, 46.558 ], [ 6.135, 46.554 ], [ 6.082, 46.587 ], [ 6.054, 46.609 ], [ 6.058, 46.615 ], [ 6.069, 46.614 ], [ 6.061, 46.621 ], [ 6.065, 46.628 ], [ 6.104, 46.645 ], [ 6.1, 46.65 ], [ 6.109, 46.654 ] ] ] } },
{ "type": "Feature", "properties": { "code": 56, "mountain": "Jura", "title": "Haut-Jura", "title_s": "H-Jur", "id_mf": null }, "geometry": { "type": "Polygon", "coordinates": [ [ [ 6.078, 46.433 ], [ 6.069, 46.417 ], [ 6.062, 46.418 ], [ 6.039, 46.398 ], [ 6.006, 46.374 ], [ 5.984, 46.365 ], [ 5.938, 46.312 ], [ 5.924, 46.316 ], [ 5.917, 46.31 ], [ 5.916, 46.3 ], [ 5.908, 46.286 ], [ 5.897, 46.288 ], [ 5.876, 46.268 ], [ 5.871, 46.267 ], [ 5.867, 46.272 ], [ 5.862, 46.273 ], [ 5.856, 46.267 ], [ 5.846, 46.262 ], [ 5.77, 46.269 ], [ 5.728, 46.262 ], [ 5.715, 46.282 ], [ 5.719, 46.288 ], [ 5.718, 46.301 ], [ 5.714, 46.31 ], [ 5.686, 46.312 ], [ 5.679, 46.321 ], [ 5.66, 46.326 ], [ 5.646, 46.326 ], [ 5.652, 46.335 ], [ 5.652, 46.343 ], [ 5.643, 46.344 ], [ 5.633, 46.338 ], [ 5.628, 46.331 ], [ 5.619, 46.33 ], [ 5.598, 46.299 ], [ 5.59, 46.295 ], [ 5.568, 46.296 ], [ 5.536, 46.27 ], [ 5.526, 46.267 ], [ 5.517, 46.267 ], [ 5.506, 46.271 ], [ 5.492, 46.267 ], [ 5.474, 46.268 ], [ 5.46, 46.279 ], [ 5.464, 46.29 ], [ 5.473, 46.302 ], [ 5.477, 46.314 ], [ 5.514, 46.566 ], [ 5.58, 46.666 ], [ 5.625, 46.716 ], [ 5.75, 46.859 ], [ 5.888, 47.001 ], [ 5.904, 47.001 ], [ 5.915, 47.002 ], [ 5.917, 47.005 ], [ 5.92, 47.016 ], [ 5.924, 47.019 ], [ 5.926, 47.018 ], [ 5.922, 47.009 ], [ 5.923, 46.996 ], [ 5.917, 46.99 ], [ 5.924, 46.988 ], [ 5.919, 46.981 ], [ 5.929, 46.979 ], [ 5.932, 46.988 ], [ 5.945, 46.985 ], [ 5.95, 46.991 ], [ 5.955, 46.992 ], [ 5.95, 46.984 ], [ 5.97, 46.983 ], [ 5.976, 46.977 ], [ 5.979, 46.976 ], [ 5.977, 46.97 ], [ 5.983, 46.966 ], [ 5.976, 46.958 ], [ 5.967, 46.955 ], [ 5.963, 46.951 ], [ 5.967, 46.948 ], [ 5.981, 46.942 ], [ 5.991, 46.941 ], [ 5.992, 46.938 ], [ 6.0, 46.935 ], [ 5.997, 46.929 ], [ 5.99, 46.923 ], [ 5.985, 46.911 ], [ 6.0, 46.9 ], [ 6.014, 46.897 ], [ 6.015, 46.887 ], [ 6.011, 46.874 ], [ 6.018, 46.873 ], [ 6.022, 46.869 ], [ 6.01, 46.86 ], [ 6.01, 46.82 ], [ 6.003, 46.741 ], [ 6.076, 46.69 ], [ 6.109, 46.654 ], [ 6.1, 46.65 ], [ 6.104, 46.645 ], [ 6.065, 46.628 ], [ 6.061, 46.621 ], [ 6.069, 46.614 ], [ 6.058, 46.615 ], [ 6.054, 46.609 ], [ 6.082, 46.587 ], [ 6.135, 46.554 ], [ 6.141, 46.558 ], [ 6.162, 46.547 ], [ 6.153, 46.54 ], [ 6.156, 46.537 ], [ 6.148, 46.53 ], [ 6.14, 46.531 ], [ 6.124, 46.517 ], [ 6.111, 46.502 ], [ 6.102, 46.484 ], [ 6.078, 46.466 ], [ 6.082, 46.458 ], [ 6.08, 46.453 ], [ 6.089, 46.448 ], [ 6.089, 46.445 ], [ 6.078, 46.433 ] ] ] } },
{ "type": "Feature", "properties": { "code": 57, "mountain": "Jura", "title": "Bugey Jura-Gessien", "title_s": "BuGes", "id_mf": null }, "geometry": { "type": "Polygon", "coordinates": [ [ [ 5.714, 46.31 ], [ 5.718, 46.301 ], [ 5.719, 46.288 ], [ 5.715, 46.282 ], [ 5.728, 46.262 ], [ 5.77, 46.269 ], [ 5.846, 46.262 ], [ 5.856, 46.267 ], [ 5.862, 46.273 ], [ 5.867, 46.272 ], [ 5.871, 46.267 ], [ 5.876, 46.268 ], [ 5.897, 46.288 ], [ 5.908, 46.286 ], [ 5.916, 46.3 ], [ 5.917, 46.31 ], [ 5.924, 46.316 ], [ 5.938, 46.312 ], [ 5.984, 46.365 ], [ 6.006, 46.374 ], [ 6.039, 46.398 ], [ 6.062, 46.418 ], [ 6.069, 46.417 ], [ 6.092, 46.412 ], [ 6.103, 46.403 ], [ 6.121, 46.399 ], [ 6.153, 46.381 ], [ 6.16, 46.38 ], [ 6.17, 46.371 ], [ 6.159, 46.359 ], [ 6.154, 46.347 ], [ 6.139, 46.336 ], [ 6.119, 46.311 ], [ 6.123, 46.298 ], [ 6.105, 46.285 ], [ 6.104, 46.28 ], [ 6.115, 46.271 ], [ 6.121, 46.249 ], [ 6.101, 46.239 ], [ 6.086, 46.248 ], [ 6.067, 46.243 ], [ 6.059, 46.245 ], [ 6.047, 46.233 ], [ 6.04, 46.233 ], [ 6.031, 46.238 ], [ 6.019, 46.234 ], [ 5.991, 46.217 ], [ 5.979, 46.218 ], [ 5.97, 46.216 ], [ 5.963, 46.201 ], [ 5.964, 46.197 ], [ 5.993, 46.185 ], [ 5.97, 46.158 ], [ 5.965, 46.147 ], [ 5.968, 46.139 ], [ 5.947, 46.131 ], [ 5.92, 46.133 ], [ 5.91, 46.126 ], [ 5.897, 46.123 ], [ 5.887, 46.118 ], [ 5.891, 46.09 ], [ 5.88, 46.087 ], [ 5.857, 46.09 ], [ 5.841, 46.098 ], [ 5.837, 46.106 ], [ 5.801, 46.133 ], [ 5.789, 46.095 ], [ 5.779, 46.037 ], [ 5.786, 45.998 ], [ 5.809, 45.962 ], [ 5.809, 45.933 ], [ 5.797, 45.901 ], [ 5.799, 45.861 ], [ 5.771, 45.854 ], [ 5.724, 45.873 ], [ 5.685, 45.892 ], [ 5.656, 45.862 ], [ 5.63, 45.83 ], [ 5.6, 45.724 ], [ 5.636, 45.672 ], [ 5.663, 45.682 ], [ 5.673, 45.671 ], [ 5.657, 45.65 ], [ 5.632, 45.645 ], [ 5.582, 45.719 ], [ 5.507, 45.757 ], [ 5.47, 45.797 ], [ 5.445, 45.839 ], [ 5.435, 45.854 ], [ 5.382, 45.878 ], [ 5.353, 45.913 ], [ 5.432, 46.115 ], [ 5.469, 46.174 ], [ 5.462, 46.182 ], [ 5.486, 46.19 ], [ 5.483, 46.195 ], [ 5.471, 46.195 ], [ 5.47, 46.208 ], [ 5.518, 46.261 ], [ 5.526, 46.261 ], [ 5.542, 46.265 ], [ 5.562, 46.287 ], [ 5.568, 46.296 ], [ 5.59, 46.295 ], [ 5.598, 46.299 ], [ 5.619, 46.33 ], [ 5.628, 46.331 ], [ 5.633, 46.338 ], [ 5.643, 46.344 ], [ 5.652, 46.343 ], [ 5.652, 46.335 ], [ 5.646, 46.326 ], [ 5.66, 46.326 ], [ 5.679, 46.321 ], [ 5.686, 46.312 ], [ 5.714, 46.31 ] ] ] } },
{ "type": "Feature", "properties": { "code": 64, "mountain": "Pyrénées", "title": "Pays-Basque", "title_s": "P-Bas", "id_mf": "OPP64" }, "geometry": { "type": "Polygon", "coordinates": [ [ [ -1.27, 43.119 ], [ -1.249, 43.127 ], [ -1.166, 43.131 ], [ -1.146, 43.12 ], [ -1.121, 43.126 ], [ -1.099, 43.141 ], [ -1.07, 43.157 ], [ -1.043, 43.157 ], [ -1.017, 43.153 ], [ -0.989, 43.151 ], [ -0.968, 43.147 ], [ -0.942, 43.14 ], [ -0.918, 43.127 ], [ -0.886, 43.097 ], [ -0.876, 43.076 ], [ -0.856, 43.059 ], [ -0.834, 43.044 ], [ -0.804, 43.039 ], [ -0.779, 43.035 ], [ -0.722, 43.048 ], [ -0.696, 43.056 ], [ -0.68, 43.065 ], [ -0.686, 43.043 ], [ -0.694, 43.024 ], [ -0.698, 43.007 ], [ -0.709, 42.991 ], [ -0.723, 42.976 ], [ -0.746, 42.96 ], [ -0.747, 42.959 ], [ -0.753, 42.967 ], [ -0.766, 42.969 ], [ -0.784, 42.965 ], [ -0.789, 42.964 ], [ -0.812, 42.951 ], [ -0.836, 42.953 ], [ -0.865, 42.951 ], [ -0.883, 42.956 ], [ -0.897, 42.956 ], [ -0.898, 42.959 ], [ -0.91, 42.964 ], [ -0.924, 42.955 ], [ -0.943, 42.954 ], [ -0.97, 42.962 ], [ -0.997, 42.976 ], [ -1.007, 42.989 ], [ -1.01, 42.991 ], [ -1.015, 42.993 ], [ -1.072, 42.998 ], [ -1.084, 43.004 ], [ -1.084, 43.011 ], [ -1.097, 43.013 ], [ -1.112, 43.022 ], [ -1.139, 43.008 ], [ -1.144, 43.014 ], [ -1.146, 43.025 ], [ -1.169, 43.036 ], [ -1.174, 43.038 ], [ -1.175, 43.034 ], [ -1.184, 43.034 ], [ -1.21, 43.049 ], [ -1.212, 43.051 ], [ -1.231, 43.055 ], [ -1.244, 43.045 ], [ -1.247, 43.042 ], [ -1.262, 43.044 ], [ -1.272, 43.055 ], [ -1.308, 43.071 ], [ -1.294, 43.1 ], [ -1.273, 43.116 ], [ -1.27, 43.119 ] ] ] } },
{ "type": "Feature", "properties": { "code": 65, "mountain": "Pyrénées", "title": "Aspe Ossau", "title_s": "AspOs", "id_mf": "OPP65" }, "geometry": { "type": "Polygon", "coordinates": [ [ [ -0.747, 42.959 ], [ -0.746, 42.96 ], [ -0.723, 42.976 ], [ -0.709, 42.991 ], [ -0.698, 43.007 ], [ -0.694, 43.024 ], [ -0.686, 43.043 ], [ -0.68, 43.065 ], [ -0.677, 43.079 ], [ -0.67, 43.095 ], [ -0.648, 43.107 ], [ -0.623, 43.115 ], [ -0.597, 43.116 ], [ -0.568, 43.117 ], [ -0.546, 43.107 ], [ -0.518, 43.102 ], [ -0.495, 43.099 ], [ -0.471, 43.093 ], [ -0.445, 43.088 ], [ -0.418, 43.084 ], [ -0.353, 43.083 ], [ -0.32, 43.083 ], [ -0.292, 43.08 ], [ -0.266, 43.074 ], [ -0.26, 43.058 ], [ -0.26, 43.04 ], [ -0.26, 43.038 ], [ -0.256, 43.025 ], [ -0.261, 43.012 ], [ -0.265, 43.01 ], [ -0.269, 43.008 ], [ -0.288, 43.006 ], [ -0.292, 42.992 ], [ -0.29, 42.961 ], [ -0.284, 42.956 ], [ -0.279, 42.942 ], [ -0.279, 42.939 ], [ -0.285, 42.93 ], [ -0.298, 42.931 ], [ -0.313, 42.919 ], [ -0.322, 42.917 ], [ -0.327, 42.917 ], [ -0.324, 42.903 ], [ -0.316, 42.895 ], [ -0.316, 42.885 ], [ -0.307, 42.869 ], [ -0.311, 42.853 ], [ -0.313, 42.849 ], [ -0.315, 42.846 ], [ -0.326, 42.835 ], [ -0.335, 42.837 ], [ -0.349, 42.835 ], [ -0.365, 42.817 ], [ -0.384, 42.801 ], [ -0.411, 42.807 ], [ -0.441, 42.797 ], [ -0.495, 42.819 ], [ -0.501, 42.828 ], [ -0.51, 42.825 ], [ -0.524, 42.811 ], [ -0.527, 42.795 ], [ -0.544, 42.791 ], [ -0.554, 42.779 ], [ -0.563, 42.781 ], [ -0.568, 42.781 ], [ -0.57, 42.791 ], [ -0.566, 42.797 ], [ -0.566, 42.804 ], [ -0.574, 42.807 ], [ -0.592, 42.804 ], [ -0.6, 42.806 ], [ -0.602, 42.83 ], [ -0.622, 42.84 ], [ -0.636, 42.853 ], [ -0.641, 42.854 ], [ -0.656, 42.859 ], [ -0.663, 42.871 ], [ -0.679, 42.883 ], [ -0.698, 42.88 ], [ -0.706, 42.884 ], [ -0.723, 42.89 ], [ -0.731, 42.898 ], [ -0.735, 42.912 ], [ -0.726, 42.92 ], [ -0.733, 42.936 ], [ -0.731, 42.939 ], [ -0.737, 42.947 ], [ -0.74, 42.949 ], [ -0.743, 42.952 ], [ -0.747, 42.959 ] ] ] } },
{ "type": "Feature", "properties": { "code": 66, "mountain": "Pyrénées", "title": "Haute-Bigorre", "title_s": "H-Big", "id_mf": "OPP66" }, "geometry": { "type": "Polygon", "coordinates": [ [ [ -0.313, 42.849 ], [ -0.311, 42.853 ], [ -0.307, 42.869 ], [ -0.316, 42.885 ], [ -0.316, 42.895 ], [ -0.324, 42.903 ], [ -0.327, 42.917 ], [ -0.322, 42.917 ], [ -0.313, 42.919 ], [ -0.298, 42.931 ], [ -0.285, 42.93 ], [ -0.279, 42.939 ], [ -0.279, 42.942 ], [ -0.284, 42.956 ], [ -0.29, 42.961 ], [ -0.292, 42.992 ], [ -0.288, 43.006 ], [ -0.269, 43.008 ], [ -0.265, 43.01 ], [ -0.261, 43.012 ], [ -0.256, 43.025 ], [ -0.26, 43.038 ], [ -0.241, 43.04 ], [ -0.224, 43.034 ], [ -0.186, 43.052 ], [ -0.181, 43.052 ], [ -0.197, 43.059 ], [ -0.199, 43.066 ], [ -0.187, 43.089 ], [ -0.182, 43.095 ], [ -0.154, 43.095 ], [ -0.129, 43.088 ], [ -0.107, 43.082 ], [ -0.058, 43.062 ], [ -0.033, 43.057 ], [ -0.005, 43.05 ], [ 0.028, 43.046 ], [ 0.058, 43.043 ], [ 0.085, 43.04 ], [ 0.138, 43.04 ], [ 0.168, 43.037 ], [ 0.197, 43.036 ], [ 0.229, 43.03 ], [ 0.285, 43.014 ], [ 0.313, 43.006 ], [ 0.34, 43.001 ], [ 0.368, 43.0 ], [ 0.368, 42.999 ], [ 0.362, 42.985 ], [ 0.362, 42.969 ], [ 0.361, 42.95 ], [ 0.359, 42.93 ], [ 0.353, 42.911 ], [ 0.349, 42.894 ], [ 0.341, 42.877 ], [ 0.333, 42.857 ], [ 0.329, 42.839 ], [ 0.321, 42.824 ], [ 0.311, 42.808 ], [ 0.296, 42.801 ], [ 0.278, 42.792 ], [ 0.255, 42.788 ], [ 0.229, 42.785 ], [ 0.212, 42.778 ], [ 0.208, 42.765 ], [ 0.202, 42.748 ], [ 0.196, 42.732 ], [ 0.176, 42.736 ], [ 0.159, 42.724 ], [ 0.137, 42.722 ], [ 0.133, 42.716 ], [ 0.115, 42.711 ], [ 0.106, 42.711 ], [ 0.089, 42.717 ], [ 0.08, 42.715 ], [ 0.069, 42.703 ], [ 0.057, 42.698 ], [ 0.048, 42.696 ], [ 0.029, 42.701 ], [ 0.025, 42.702 ], [ 0.016, 42.701 ], [ 0.014, 42.694 ], [ 0.003, 42.687 ], [ -0.011, 42.685 ], [ -0.016, 42.685 ], [ -0.058, 42.693 ], [ -0.063, 42.699 ], [ -0.068, 42.716 ], [ -0.106, 42.722 ], [ -0.123, 42.75 ], [ -0.141, 42.767 ], [ -0.149, 42.771 ], [ -0.148, 42.774 ], [ -0.155, 42.782 ], [ -0.159, 42.796 ], [ -0.174, 42.788 ], [ -0.183, 42.787 ], [ -0.198, 42.795 ], [ -0.212, 42.797 ], [ -0.236, 42.808 ], [ -0.238, 42.814 ], [ -0.239, 42.818 ], [ -0.243, 42.823 ], [ -0.247, 42.821 ], [ -0.256, 42.82 ], [ -0.275, 42.83 ], [ -0.278, 42.836 ], [ -0.305, 42.841 ], [ -0.313, 42.849 ] ] ] } },
{ "type": "Feature", "properties": { "code": 67, "mountain": "Pyrénées", "title": "Aure Louron", "title_s": "AuLou", "id_mf": "OPP67" }, "geometry": { "type": "Polygon", "coordinates": [ [ [ 0.196, 42.732 ], [ 0.202, 42.748 ], [ 0.208, 42.765 ], [ 0.212, 42.778 ], [ 0.229, 42.785 ], [ 0.255, 42.788 ], [ 0.278, 42.792 ], [ 0.296, 42.801 ], [ 0.311, 42.808 ], [ 0.321, 42.824 ], [ 0.329, 42.839 ], [ 0.333, 42.857 ], [ 0.341, 42.877 ], [ 0.349, 42.894 ], [ 0.353, 42.911 ], [ 0.359, 42.93 ], [ 0.361, 42.95 ], [ 0.362, 42.969 ], [ 0.362, 42.985 ], [ 0.368, 42.999 ], [ 0.368, 43.0 ], [ 0.403, 43.003 ], [ 0.425, 43.013 ], [ 0.452, 43.017 ], [ 0.478, 43.016 ], [ 0.503, 43.008 ], [ 0.55, 42.998 ], [ 0.573, 42.982 ], [ 0.597, 42.969 ], [ 0.616, 42.959 ], [ 0.638, 42.95 ], [ 0.627, 42.942 ], [ 0.618, 42.94 ], [ 0.615, 42.937 ], [ 0.609, 42.935 ], [ 0.606, 42.934 ], [ 0.604, 42.932 ], [ 0.6, 42.928 ], [ 0.597, 42.921 ], [ 0.598, 42.918 ], [ 0.595, 42.91 ], [ 0.592, 42.909 ], [ 0.586, 42.897 ], [ 0.586, 42.894 ], [ 0.581, 42.886 ], [ 0.58, 42.883 ], [ 0.577, 42.88 ], [ 0.578, 42.877 ], [ 0.576, 42.871 ], [ 0.564, 42.863 ], [ 0.562, 42.861 ], [ 0.558, 42.861 ], [ 0.554, 42.86 ], [ 0.547, 42.865 ], [ 0.534, 42.861 ], [ 0.528, 42.865 ], [ 0.526, 42.868 ], [ 0.509, 42.869 ], [ 0.504, 42.869 ], [ 0.499, 42.875 ], [ 0.482, 42.878 ], [ 0.477, 42.878 ], [ 0.472, 42.869 ], [ 0.473, 42.863 ], [ 0.473, 42.859 ], [ 0.469, 42.858 ], [ 0.46, 42.852 ], [ 0.465, 42.848 ], [ 0.468, 42.847 ], [ 0.464, 42.84 ], [ 0.459, 42.827 ], [ 0.459, 42.824 ], [ 0.458, 42.808 ], [ 0.46, 42.805 ], [ 0.463, 42.805 ], [ 0.463, 42.802 ], [ 0.463, 42.79 ], [ 0.462, 42.789 ], [ 0.456, 42.781 ], [ 0.455, 42.771 ], [ 0.462, 42.763 ], [ 0.463, 42.76 ], [ 0.46, 42.749 ], [ 0.462, 42.746 ], [ 0.462, 42.739 ], [ 0.451, 42.733 ], [ 0.482, 42.712 ], [ 0.483, 42.706 ], [ 0.478, 42.7 ], [ 0.473, 42.7 ], [ 0.462, 42.694 ], [ 0.437, 42.69 ], [ 0.426, 42.691 ], [ 0.396, 42.7 ], [ 0.393, 42.713 ], [ 0.388, 42.713 ], [ 0.374, 42.715 ], [ 0.36, 42.724 ], [ 0.359, 42.721 ], [ 0.345, 42.711 ], [ 0.328, 42.705 ], [ 0.321, 42.685 ], [ 0.296, 42.675 ], [ 0.266, 42.693 ], [ 0.267, 42.703 ], [ 0.26, 42.716 ], [ 0.224, 42.719 ], [ 0.209, 42.727 ], [ 0.206, 42.729 ], [ 0.196, 42.732 ] ] ] } },
{ "type": "Feature", "properties": { "code": 68, "mountain": "Pyrénées", "title": "Luchonnais", "title_s": "Lucho", "id_mf": "OPP68" }, "geometry": { "type": "Polygon", "coordinates": [ [ [ 0.729, 42.856 ], [ 0.713, 42.86 ], [ 0.708, 42.861 ], [ 0.704, 42.86 ], [ 0.692, 42.855 ], [ 0.678, 42.855 ], [ 0.679, 42.848 ], [ 0.659, 42.839 ], [ 0.659, 42.835 ], [ 0.661, 42.832 ], [ 0.67, 42.825 ], [ 0.665, 42.815 ], [ 0.666, 42.812 ], [ 0.67, 42.804 ], [ 0.66, 42.798 ], [ 0.658, 42.796 ], [ 0.652, 42.788 ], [ 0.65, 42.785 ], [ 0.645, 42.783 ], [ 0.664, 42.775 ], [ 0.642, 42.755 ], [ 0.66, 42.752 ], [ 0.67, 42.733 ], [ 0.676, 42.727 ], [ 0.675, 42.717 ], [ 0.68, 42.708 ], [ 0.673, 42.691 ], [ 0.663, 42.691 ], [ 0.622, 42.696 ], [ 0.6, 42.703 ], [ 0.597, 42.706 ], [ 0.594, 42.704 ], [ 0.593, 42.701 ], [ 0.588, 42.695 ], [ 0.579, 42.696 ], [ 0.53, 42.703 ], [ 0.526, 42.703 ], [ 0.516, 42.692 ], [ 0.493, 42.693 ], [ 0.482, 42.699 ], [ 0.478, 42.7 ], [ 0.483, 42.706 ], [ 0.482, 42.712 ], [ 0.451, 42.733 ], [ 0.462, 42.739 ], [ 0.462, 42.746 ], [ 0.46, 42.749 ], [ 0.463, 42.76 ], [ 0.462, 42.763 ], [ 0.455, 42.771 ], [ 0.456, 42.781 ], [ 0.462, 42.789 ], [ 0.463, 42.79 ], [ 0.463, 42.802 ], [ 0.463, 42.805 ], [ 0.46, 42.805 ], [ 0.458, 42.808 ], [ 0.459, 42.824 ], [ 0.459, 42.827 ], [ 0.464, 42.84 ], [ 0.468, 42.847 ], [ 0.465, 42.848 ], [ 0.46, 42.852 ], [ 0.469, 42.858 ], [ 0.473, 42.859 ], [ 0.473, 42.863 ], [ 0.472, 42.869 ], [ 0.477, 42.878 ], [ 0.482, 42.878 ], [ 0.499, 42.875 ], [ 0.504, 42.869 ], [ 0.509, 42.869 ], [ 0.526, 42.868 ], [ 0.528, 42.865 ], [ 0.534, 42.861 ], [ 0.547, 42.865 ], [ 0.554, 42.86 ], [ 0.558, 42.861 ], [ 0.562, 42.861 ], [ 0.564, 42.863 ], [ 0.576, 42.871 ], [ 0.578, 42.877 ], [ 0.577, 42.88 ], [ 0.58, 42.883 ], [ 0.581, 42.886 ], [ 0.586, 42.894 ], [ 0.586, 42.897 ], [ 0.592, 42.909 ], [ 0.595, 42.91 ], [ 0.598, 42.918 ], [ 0.597, 42.921 ], [ 0.6, 42.928 ], [ 0.604, 42.932 ], [ 0.606, 42.934 ], [ 0.609, 42.935 ], [ 0.615, 42.937 ], [ 0.618, 42.94 ], [ 0.627, 42.942 ], [ 0.638, 42.95 ], [ 0.655, 42.94 ], [ 0.671, 42.924 ], [ 0.692, 42.908 ], [ 0.711, 42.892 ], [ 0.725, 42.877 ], [ 0.729, 42.856 ] ] ] } },
{ "type": "Feature", "properties": { "code": 69, "mountain": "Pyrénées", "title": "Couserans", "title_s": "Couse", "id_mf": "OPP69" }, "geometry": { "type": "Polygon", "coordinates": [ [ [ 1.37, 42.696 ], [ 1.355, 42.7 ], [ 1.352, 42.706 ], [ 1.358, 42.716 ], [ 1.357, 42.719 ], [ 1.337, 42.721 ], [ 1.335, 42.724 ], [ 1.326, 42.724 ], [ 1.309, 42.718 ], [ 1.295, 42.719 ], [ 1.282, 42.715 ], [ 1.269, 42.718 ], [ 1.256, 42.715 ], [ 1.242, 42.724 ], [ 1.229, 42.728 ], [ 1.226, 42.725 ], [ 1.218, 42.721 ], [ 1.19, 42.717 ], [ 1.174, 42.709 ], [ 1.165, 42.71 ], [ 1.135, 42.727 ], [ 1.129, 42.755 ], [ 1.107, 42.772 ], [ 1.09, 42.777 ], [ 1.082, 42.786 ], [ 1.079, 42.788 ], [ 1.073, 42.783 ], [ 1.049, 42.782 ], [ 1.038, 42.787 ], [ 1.01, 42.789 ], [ 1.006, 42.791 ], [ 1.001, 42.789 ], [ 0.984, 42.787 ], [ 0.96, 42.806 ], [ 0.947, 42.801 ], [ 0.934, 42.791 ], [ 0.926, 42.79 ], [ 0.885, 42.813 ], [ 0.871, 42.816 ], [ 0.86, 42.822 ], [ 0.858, 42.826 ], [ 0.854, 42.827 ], [ 0.835, 42.828 ], [ 0.801, 42.841 ], [ 0.779, 42.836 ], [ 0.74, 42.848 ], [ 0.729, 42.856 ], [ 0.725, 42.877 ], [ 0.711, 42.892 ], [ 0.692, 42.908 ], [ 0.671, 42.924 ], [ 0.655, 42.94 ], [ 0.638, 42.95 ], [ 0.655, 42.965 ], [ 0.673, 42.975 ], [ 0.72, 42.976 ], [ 0.761, 42.973 ], [ 0.785, 42.974 ], [ 0.807, 42.978 ], [ 0.832, 42.978 ], [ 0.858, 42.976 ], [ 0.881, 42.976 ], [ 0.905, 42.97 ], [ 0.932, 42.968 ], [ 0.971, 42.981 ], [ 0.999, 42.983 ], [ 1.05, 42.971 ], [ 1.073, 42.967 ], [ 1.122, 42.951 ], [ 1.174, 42.939 ], [ 1.227, 42.937 ], [ 1.254, 42.936 ], [ 1.282, 42.935 ], [ 1.368, 42.933 ], [ 1.403, 42.928 ], [ 1.462, 42.926 ], [ 1.491, 42.927 ], [ 1.524, 42.924 ], [ 1.556, 42.924 ], [ 1.585, 42.919 ], [ 1.608, 42.911 ], [ 1.619, 42.892 ], [ 1.618, 42.874 ], [ 1.604, 42.836 ], [ 1.593, 42.821 ], [ 1.585, 42.805 ], [ 1.57, 42.791 ], [ 1.541, 42.777 ], [ 1.515, 42.772 ], [ 1.488, 42.767 ], [ 1.466, 42.759 ], [ 1.459, 42.744 ], [ 1.445, 42.729 ], [ 1.427, 42.716 ], [ 1.407, 42.707 ], [ 1.388, 42.697 ], [ 1.377, 42.695 ], [ 1.373, 42.695 ], [ 1.37, 42.696 ] ] ] } },
{ "type": "Feature", "properties": { "code": 70, "mountain": "Pyrénées", "title": "Haute-Ariege", "title_s": "H-Ari", "id_mf": "OPP70" }, "geometry": { "type": "Polygon", "coordinates": [ [ [ 1.786, 42.574 ], [ 1.778, 42.582 ], [ 1.764, 42.581 ], [ 1.728, 42.59 ], [ 1.726, 42.596 ], [ 1.735, 42.609 ], [ 1.738, 42.611 ], [ 1.737, 42.618 ], [ 1.733, 42.616 ], [ 1.714, 42.615 ], [ 1.683, 42.625 ], [ 1.66, 42.62 ], [ 1.649, 42.627 ], [ 1.635, 42.629 ], [ 1.603, 42.626 ], [ 1.583, 42.635 ], [ 1.575, 42.648 ], [ 1.571, 42.648 ], [ 1.565, 42.652 ], [ 1.553, 42.654 ], [ 1.549, 42.656 ], [ 1.534, 42.65 ], [ 1.522, 42.649 ], [ 1.506, 42.645 ], [ 1.494, 42.653 ], [ 1.48, 42.651 ], [ 1.471, 42.635 ], [ 1.474, 42.611 ], [ 1.458, 42.604 ], [ 1.439, 42.604 ], [ 1.422, 42.625 ], [ 1.413, 42.653 ], [ 1.39, 42.67 ], [ 1.388, 42.687 ], [ 1.373, 42.695 ], [ 1.377, 42.695 ], [ 1.388, 42.697 ], [ 1.407, 42.707 ], [ 1.427, 42.716 ], [ 1.445, 42.729 ], [ 1.459, 42.744 ], [ 1.466, 42.759 ], [ 1.488, 42.767 ], [ 1.515, 42.772 ], [ 1.541, 42.777 ], [ 1.57, 42.791 ], [ 1.585, 42.805 ], [ 1.593, 42.821 ], [ 1.604, 42.836 ], [ 1.609, 42.822 ], [ 1.63, 42.809 ], [ 1.653, 42.795 ], [ 1.678, 42.786 ], [ 1.701, 42.777 ], [ 1.722, 42.771 ], [ 1.743, 42.765 ], [ 1.762, 42.754 ], [ 1.779, 42.744 ], [ 1.802, 42.733 ], [ 1.821, 42.722 ], [ 1.825, 42.708 ], [ 1.828, 42.692 ], [ 1.831, 42.676 ], [ 1.836, 42.657 ], [ 1.831, 42.639 ], [ 1.827, 42.62 ], [ 1.812, 42.602 ], [ 1.8, 42.588 ], [ 1.786, 42.574 ] ] ] } },
{ "type": "Feature", "properties": { "code": 71, "mountain": "Pyrénées", "title": "Andorre", "title_s": "Andor", "id_mf": null }, "geometry": { "type": "Polygon", "coordinates": [ [ [ 1.727, 42.503 ], [ 1.719, 42.499 ], [ 1.712, 42.495 ], [ 1.704, 42.494 ], [ 1.683, 42.496 ], [ 1.67, 42.506 ], [ 1.669, 42.505 ], [ 1.664, 42.496 ], [ 1.663, 42.482 ], [ 1.661, 42.476 ], [ 1.654, 42.468 ], [ 1.637, 42.468 ], [ 1.628, 42.464 ], [ 1.594, 42.466 ], [ 1.588, 42.464 ], [ 1.58, 42.449 ], [ 1.565, 42.459 ], [ 1.561, 42.458 ], [ 1.557, 42.451 ], [ 1.552, 42.436 ], [ 1.533, 42.434 ], [ 1.518, 42.434 ], [ 1.509, 42.433 ], [ 1.468, 42.438 ], [ 1.46, 42.44 ], [ 1.454, 42.442 ], [ 1.448, 42.45 ], [ 1.444, 42.453 ], [ 1.444, 42.459 ], [ 1.44, 42.467 ], [ 1.44, 42.478 ], [ 1.435, 42.481 ], [ 1.423, 42.486 ], [ 1.42, 42.49 ], [ 1.421, 42.493 ], [ 1.444, 42.498 ], [ 1.461, 42.506 ], [ 1.467, 42.51 ], [ 1.467, 42.514 ], [ 1.463, 42.52 ], [ 1.455, 42.527 ], [ 1.452, 42.532 ], [ 1.451, 42.537 ], [ 1.445, 42.542 ], [ 1.431, 42.541 ], [ 1.412, 42.535 ], [ 1.413, 42.54 ], [ 1.426, 42.559 ], [ 1.444, 42.565 ], [ 1.445, 42.57 ], [ 1.444, 42.572 ], [ 1.43, 42.579 ], [ 1.429, 42.583 ], [ 1.429, 42.586 ], [ 1.433, 42.589 ], [ 1.441, 42.591 ], [ 1.442, 42.598 ], [ 1.439, 42.604 ], [ 1.458, 42.604 ], [ 1.474, 42.611 ], [ 1.471, 42.635 ], [ 1.48, 42.651 ], [ 1.494, 42.653 ], [ 1.506, 42.645 ], [ 1.522, 42.649 ], [ 1.534, 42.65 ], [ 1.549, 42.656 ], [ 1.553, 42.654 ], [ 1.565, 42.652 ], [ 1.571, 42.648 ], [ 1.575, 42.648 ], [ 1.583, 42.635 ], [ 1.603, 42.626 ], [ 1.635, 42.629 ], [ 1.649, 42.627 ], [ 1.66, 42.62 ], [ 1.683, 42.625 ], [ 1.714, 42.615 ], [ 1.733, 42.616 ], [ 1.737, 42.618 ], [ 1.738, 42.611 ], [ 1.735, 42.609 ], [ 1.726, 42.596 ], [ 1.728, 42.59 ], [ 1.764, 42.581 ], [ 1.778, 42.582 ], [ 1.786, 42.574 ], [ 1.783, 42.572 ], [ 1.77, 42.565 ], [ 1.765, 42.565 ], [ 1.751, 42.563 ], [ 1.74, 42.556 ], [ 1.733, 42.533 ], [ 1.724, 42.52 ], [ 1.727, 42.503 ] ] ] } },
{ "type": "Feature", "properties": { "code": 72, "mountain": "Pyrénées", "title": "Orlu St-Barthelemy", "title_s": "OrSBa", "id_mf": "OPP72" }, "geometry": { "type": "Polygon", "coordinates": [ [ [ 1.786, 42.574 ], [ 1.8, 42.588 ], [ 1.812, 42.602 ], [ 1.827, 42.62 ], [ 1.831, 42.639 ], [ 1.836, 42.657 ], [ 1.831, 42.676 ], [ 1.828, 42.692 ], [ 1.825, 42.708 ], [ 1.821, 42.722 ], [ 1.802, 42.733 ], [ 1.779, 42.744 ], [ 1.762, 42.754 ], [ 1.743, 42.765 ], [ 1.722, 42.771 ], [ 1.701, 42.777 ], [ 1.678, 42.786 ], [ 1.653, 42.795 ], [ 1.63, 42.809 ], [ 1.609, 42.822 ], [ 1.604, 42.836 ], [ 1.632, 42.872 ], [ 1.648, 42.889 ], [ 1.667, 42.904 ], [ 1.69, 42.912 ], [ 1.735, 42.907 ], [ 1.758, 42.901 ], [ 1.782, 42.892 ], [ 1.824, 42.866 ], [ 1.845, 42.854 ], [ 1.868, 42.848 ], [ 1.889, 42.846 ], [ 1.913, 42.844 ], [ 1.932, 42.832 ], [ 1.962, 42.808 ], [ 1.979, 42.796 ], [ 1.996, 42.783 ], [ 2.019, 42.771 ], [ 2.04, 42.763 ], [ 2.063, 42.755 ], [ 2.086, 42.745 ], [ 2.089, 42.73 ], [ 2.091, 42.665 ], [ 2.074, 42.666 ], [ 2.061, 42.662 ], [ 2.047, 42.664 ], [ 2.043, 42.658 ], [ 2.023, 42.653 ], [ 2.018, 42.654 ], [ 2.015, 42.655 ], [ 2.002, 42.661 ], [ 1.998, 42.661 ], [ 1.991, 42.647 ], [ 1.988, 42.644 ], [ 1.976, 42.627 ], [ 1.976, 42.621 ], [ 1.973, 42.618 ], [ 1.95, 42.617 ], [ 1.942, 42.609 ], [ 1.934, 42.606 ], [ 1.925, 42.609 ], [ 1.911, 42.608 ], [ 1.9, 42.615 ], [ 1.899, 42.612 ], [ 1.894, 42.606 ], [ 1.89, 42.593 ], [ 1.873, 42.588 ], [ 1.874, 42.581 ], [ 1.865, 42.58 ], [ 1.838, 42.584 ], [ 1.825, 42.581 ], [ 1.821, 42.58 ], [ 1.8, 42.572 ], [ 1.786, 42.574 ] ] ] } },
{ "type": "Feature", "properties": { "code": 73, "mountain": "Pyrénées", "title": "Capcir Puymorens", "title_s": "CaPuy", "id_mf": "OPP73" }, "geometry": { "type": "Polygon", "coordinates": [ [ [ 1.941, 42.447 ], [ 1.937, 42.453 ], [ 1.934, 42.454 ], [ 1.918, 42.447 ], [ 1.905, 42.449 ], [ 1.9, 42.45 ], [ 1.887, 42.45 ], [ 1.878, 42.461 ], [ 1.865, 42.465 ], [ 1.856, 42.464 ], [ 1.845, 42.474 ], [ 1.843, 42.477 ], [ 1.831, 42.483 ], [ 1.813, 42.485 ], [ 1.805, 42.489 ], [ 1.768, 42.487 ], [ 1.747, 42.495 ], [ 1.732, 42.493 ], [ 1.727, 42.503 ], [ 1.724, 42.52 ], [ 1.733, 42.533 ], [ 1.74, 42.556 ], [ 1.751, 42.563 ], [ 1.765, 42.565 ], [ 1.77, 42.565 ], [ 1.783, 42.572 ], [ 1.786, 42.574 ], [ 1.8, 42.572 ], [ 1.821, 42.58 ], [ 1.825, 42.581 ], [ 1.838, 42.584 ], [ 1.865, 42.58 ], [ 1.874, 42.581 ], [ 1.873, 42.588 ], [ 1.89, 42.593 ], [ 1.894, 42.606 ], [ 1.899, 42.612 ], [ 1.9, 42.615 ], [ 1.911, 42.608 ], [ 1.925, 42.609 ], [ 1.934, 42.606 ], [ 1.942, 42.609 ], [ 1.95, 42.617 ], [ 1.973, 42.618 ], [ 1.976, 42.621 ], [ 1.976, 42.627 ], [ 1.988, 42.644 ], [ 1.991, 42.647 ], [ 1.998, 42.661 ], [ 2.002, 42.661 ], [ 2.015, 42.655 ], [ 2.018, 42.654 ], [ 2.023, 42.653 ], [ 2.043, 42.658 ], [ 2.047, 42.664 ], [ 2.061, 42.662 ], [ 2.074, 42.666 ], [ 2.091, 42.665 ], [ 2.1, 42.674 ], [ 2.121, 42.703 ], [ 2.133, 42.716 ], [ 2.149, 42.727 ], [ 2.169, 42.734 ], [ 2.194, 42.724 ], [ 2.211, 42.714 ], [ 2.236, 42.703 ], [ 2.254, 42.691 ], [ 2.281, 42.683 ], [ 2.304, 42.677 ], [ 2.331, 42.67 ], [ 2.36, 42.661 ], [ 2.383, 42.65 ], [ 2.394, 42.639 ], [ 2.407, 42.627 ], [ 2.413, 42.609 ], [ 2.411, 42.593 ], [ 2.41, 42.576 ], [ 2.384, 42.569 ], [ 2.36, 42.561 ], [ 2.338, 42.555 ], [ 2.315, 42.548 ], [ 2.293, 42.542 ], [ 2.268, 42.535 ], [ 2.246, 42.529 ], [ 2.224, 42.522 ], [ 2.2, 42.516 ], [ 2.177, 42.509 ], [ 2.151, 42.504 ], [ 2.126, 42.499 ], [ 2.102, 42.493 ], [ 2.081, 42.488 ], [ 2.057, 42.482 ], [ 2.034, 42.476 ], [ 2.004, 42.469 ], [ 1.991, 42.467 ], [ 1.981, 42.464 ], [ 1.959, 42.455 ], [ 1.941, 42.447 ] ] ] } },
{ "type": "Feature", "properties": { "code": 74, "mountain": "Pyrénées", "title": "Cerdagne Canigou", "title_s": "CerCa", "id_mf": "OPP74" }, "geometry": { "type": "Polygon", "coordinates": [ [ [ 2.674, 42.404 ], [ 2.671, 42.388 ], [ 2.653, 42.384 ], [ 2.659, 42.38 ], [ 2.662, 42.366 ], [ 2.675, 42.356 ], [ 2.675, 42.345 ], [ 2.673, 42.342 ], [ 2.663, 42.341 ], [ 2.616, 42.346 ], [ 2.59, 42.354 ], [ 2.588, 42.357 ], [ 2.562, 42.357 ], [ 2.555, 42.353 ], [ 2.552, 42.343 ], [ 2.542, 42.335 ], [ 2.533, 42.333 ], [ 2.498, 42.343 ], [ 2.485, 42.34 ], [ 2.478, 42.344 ], [ 2.476, 42.348 ], [ 2.473, 42.35 ], [ 2.467, 42.36 ], [ 2.453, 42.369 ], [ 2.436, 42.375 ], [ 2.433, 42.392 ], [ 2.41, 42.392 ], [ 2.384, 42.4 ], [ 2.37, 42.402 ], [ 2.356, 42.404 ], [ 2.348, 42.408 ], [ 2.345, 42.414 ], [ 2.327, 42.417 ], [ 2.319, 42.425 ], [ 2.311, 42.428 ], [ 2.294, 42.423 ], [ 2.257, 42.438 ], [ 2.244, 42.429 ], [ 2.226, 42.426 ], [ 2.201, 42.417 ], [ 2.157, 42.423 ], [ 2.137, 42.416 ], [ 2.133, 42.414 ], [ 2.127, 42.41 ], [ 2.119, 42.396 ], [ 2.115, 42.395 ], [ 2.114, 42.382 ], [ 2.093, 42.375 ], [ 2.09, 42.374 ], [ 2.086, 42.364 ], [ 2.077, 42.364 ], [ 2.06, 42.359 ], [ 2.023, 42.355 ], [ 2.013, 42.349 ], [ 1.989, 42.361 ], [ 1.97, 42.377 ], [ 1.961, 42.393 ], [ 1.956, 42.417 ], [ 1.958, 42.424 ], [ 1.945, 42.428 ], [ 1.942, 42.431 ], [ 1.941, 42.434 ], [ 1.943, 42.444 ], [ 1.941, 42.447 ], [ 1.959, 42.455 ], [ 1.981, 42.464 ], [ 1.991, 42.467 ], [ 2.004, 42.469 ], [ 2.034, 42.476 ], [ 2.057, 42.482 ], [ 2.081, 42.488 ], [ 2.102, 42.493 ], [ 2.126, 42.499 ], [ 2.151, 42.504 ], [ 2.177, 42.509 ], [ 2.2, 42.516 ], [ 2.224, 42.522 ], [ 2.246, 42.529 ], [ 2.268, 42.535 ], [ 2.293, 42.542 ], [ 2.315, 42.548 ], [ 2.338, 42.555 ], [ 2.36, 42.561 ], [ 2.384, 42.569 ], [ 2.41, 42.576 ], [ 2.435, 42.581 ], [ 2.491, 42.577 ], [ 2.512, 42.568 ], [ 2.55, 42.545 ], [ 2.57, 42.533 ], [ 2.589, 42.522 ], [ 2.608, 42.509 ], [ 2.622, 42.493 ], [ 2.637, 42.478 ], [ 2.647, 42.459 ], [ 2.658, 42.443 ], [ 2.67, 42.425 ], [ 2.678, 42.409 ], [ 2.674, 42.404 ] ] ] } },
{ "type": "Feature", "properties": { "code": 80, "mountain": "Pyrénées Espagne", "title": "Navarra", "title_s": "Navar", "id_mf": null }, "geometry": { "type": "Polygon", "coordinates": [ [ [ -0.706, 42.884 ], [ -0.71, 42.872 ], [ -0.713, 42.851 ], [ -0.722, 42.835 ], [ -0.729, 42.814 ], [ -0.736, 42.784 ], [ -0.738, 42.772 ], [ -0.743, 42.735 ], [ -0.749, 42.708 ], [ -0.752, 42.613 ], [ -0.757, 42.606 ], [ -0.759, 42.574 ], [ -1.562, 42.999 ], [ -1.613, 43.064 ], [ -1.471, 43.091 ], [ -1.471, 43.081 ], [ -1.456, 43.063 ], [ -1.453, 43.06 ], [ -1.44, 43.046 ], [ -1.366, 43.031 ], [ -1.357, 43.029 ], [ -1.351, 43.034 ], [ -1.345, 43.051 ], [ -1.341, 43.079 ], [ -1.345, 43.093 ], [ -1.332, 43.108 ], [ -1.328, 43.109 ], [ -1.32, 43.113 ], [ -1.27, 43.119 ], [ -1.273, 43.116 ], [ -1.294, 43.1 ], [ -1.308, 43.071 ], [ -1.272, 43.055 ], [ -1.262, 43.044 ], [ -1.247, 43.042 ], [ -1.244, 43.045 ], [ -1.231, 43.055 ], [ -1.212, 43.051 ], [ -1.21, 43.049 ], [ -1.184, 43.034 ], [ -1.175, 43.034 ], [ -1.174, 43.038 ], [ -1.169, 43.036 ], [ -1.146, 43.025 ], [ -1.144, 43.014 ], [ -1.139, 43.008 ], [ -1.112, 43.022 ], [ -1.097, 43.013 ], [ -1.084, 43.011 ], [ -1.084, 43.004 ], [ -1.072, 42.998 ], [ -1.015, 42.993 ], [ -1.01, 42.991 ], [ -1.007, 42.989 ], [ -0.997, 42.976 ], [ -0.97, 42.962 ], [ -0.943, 42.954 ], [ -0.924, 42.955 ], [ -0.91, 42.964 ], [ -0.898, 42.959 ], [ -0.897, 42.956 ], [ -0.883, 42.956 ], [ -0.865, 42.951 ], [ -0.836, 42.953 ], [ -0.812, 42.951 ], [ -0.789, 42.964 ], [ -0.784, 42.965 ], [ -0.766, 42.969 ], [ -0.753, 42.967 ], [ -0.747, 42.959 ], [ -0.743, 42.952 ], [ -0.74, 42.949 ], [ -0.737, 42.947 ], [ -0.731, 42.939 ], [ -0.733, 42.936 ], [ -0.726, 42.92 ], [ -0.735, 42.912 ], [ -0.731, 42.898 ], [ -0.723, 42.89 ], [ -0.706, 42.884 ] ] ] } },
{ "type": "Feature", "properties": { "code": 81, "mountain": "Pyrénées Espagne", "title": "Jacetiana", "title_s": "Jacet", "id_mf": null }, "geometry": { "type": "Polygon", "coordinates": [ [ [ -0.759, 42.574 ], [ -0.757, 42.606 ], [ -0.752, 42.613 ], [ -0.749, 42.708 ], [ -0.743, 42.735 ], [ -0.738, 42.772 ], [ -0.736, 42.784 ], [ -0.729, 42.814 ], [ -0.722, 42.835 ], [ -0.713, 42.851 ], [ -0.71, 42.872 ], [ -0.706, 42.884 ], [ -0.698, 42.88 ], [ -0.679, 42.883 ], [ -0.663, 42.871 ], [ -0.656, 42.859 ], [ -0.641, 42.854 ], [ -0.636, 42.853 ], [ -0.622, 42.84 ], [ -0.602, 42.83 ], [ -0.6, 42.806 ], [ -0.592, 42.804 ], [ -0.574, 42.807 ], [ -0.566, 42.804 ], [ -0.566, 42.797 ], [ -0.57, 42.791 ], [ -0.568, 42.781 ], [ -0.563, 42.781 ], [ -0.554, 42.779 ], [ -0.544, 42.791 ], [ -0.527, 42.795 ], [ -0.524, 42.811 ], [ -0.51, 42.825 ], [ -0.501, 42.828 ], [ -0.495, 42.819 ], [ -0.441, 42.797 ], [ -0.411, 42.807 ], [ -0.384, 42.801 ], [ -0.381, 42.793 ], [ -0.346, 42.77 ], [ -0.329, 42.743 ], [ -0.323, 42.705 ], [ -0.319, 42.677 ], [ -0.326, 42.661 ], [ -0.328, 42.595 ], [ -0.332, 42.579 ], [ -0.337, 42.552 ], [ -0.354, 42.522 ], [ -0.36, 42.502 ], [ -0.367, 42.493 ], [ -0.376, 42.473 ], [ -0.382, 42.462 ], [ -0.392, 42.444 ], [ -0.405, 42.435 ], [ -0.759, 42.574 ] ] ] } },
{ "type": "Feature", "properties": { "code": 82, "mountain": "Pyrénées Espagne", "title": "Gallego", "title_s": "Galle", "id_mf": null }, "geometry": { "type": "Polygon", "coordinates": [ [ [ -0.405, 42.435 ], [ -0.392, 42.444 ], [ -0.382, 42.462 ], [ -0.376, 42.473 ], [ -0.367, 42.493 ], [ -0.36, 42.502 ], [ -0.354, 42.522 ], [ -0.337, 42.552 ], [ -0.332, 42.579 ], [ -0.328, 42.595 ], [ -0.326, 42.661 ], [ -0.319, 42.677 ], [ -0.323, 42.705 ], [ -0.329, 42.743 ], [ -0.346, 42.77 ], [ -0.381, 42.793 ], [ -0.384, 42.801 ], [ -0.365, 42.817 ], [ -0.349, 42.835 ], [ -0.335, 42.837 ], [ -0.326, 42.835 ], [ -0.315, 42.846 ], [ -0.313, 42.849 ], [ -0.305, 42.841 ], [ -0.278, 42.836 ], [ -0.275, 42.83 ], [ -0.256, 42.82 ], [ -0.247, 42.821 ], [ -0.243, 42.823 ], [ -0.239, 42.818 ], [ -0.238, 42.814 ], [ -0.236, 42.808 ], [ -0.212, 42.797 ], [ -0.198, 42.795 ], [ -0.183, 42.787 ], [ -0.174, 42.788 ], [ -0.159, 42.796 ], [ -0.155, 42.782 ], [ -0.148, 42.774 ], [ -0.149, 42.771 ], [ -0.118, 42.685 ], [ -0.123, 42.663 ], [ -0.127, 42.608 ], [ -0.133, 42.6 ], [ -0.135, 42.563 ], [ -0.142, 42.549 ], [ -0.149, 42.521 ], [ -0.156, 42.513 ], [ -0.172, 42.479 ], [ -0.181, 42.47 ], [ -0.192, 42.45 ], [ -0.199, 42.434 ], [ -0.205, 42.399 ], [ -0.405, 42.435 ] ] ] } },
{ "type": "Feature", "properties": { "code": 83, "mountain": "Pyrénées Espagne", "title": "Sobrarbe", "title_s": "Sobra", "id_mf": null }, "geometry": { "type": "Polygon", "coordinates": [ [ [ -0.205, 42.399 ], [ -0.199, 42.434 ], [ -0.192, 42.45 ], [ -0.181, 42.47 ], [ -0.172, 42.479 ], [ -0.156, 42.513 ], [ -0.149, 42.521 ], [ -0.142, 42.549 ], [ -0.135, 42.563 ], [ -0.133, 42.6 ], [ -0.127, 42.608 ], [ -0.123, 42.663 ], [ -0.118, 42.685 ], [ -0.149, 42.771 ], [ -0.141, 42.767 ], [ -0.123, 42.75 ], [ -0.106, 42.722 ], [ -0.068, 42.716 ], [ -0.063, 42.699 ], [ -0.058, 42.693 ], [ -0.016, 42.685 ], [ -0.011, 42.685 ], [ 0.003, 42.687 ], [ 0.014, 42.694 ], [ 0.016, 42.701 ], [ 0.025, 42.702 ], [ 0.029, 42.701 ], [ 0.048, 42.696 ], [ 0.057, 42.698 ], [ 0.069, 42.703 ], [ 0.08, 42.715 ], [ 0.089, 42.717 ], [ 0.106, 42.711 ], [ 0.115, 42.711 ], [ 0.133, 42.716 ], [ 0.137, 42.722 ], [ 0.159, 42.724 ], [ 0.176, 42.736 ], [ 0.196, 42.732 ], [ 0.206, 42.729 ], [ 0.209, 42.727 ], [ 0.224, 42.719 ], [ 0.26, 42.716 ], [ 0.267, 42.703 ], [ 0.266, 42.693 ], [ 0.296, 42.675 ], [ 0.321, 42.685 ], [ 0.328, 42.705 ], [ 0.345, 42.711 ], [ 0.359, 42.721 ], [ 0.36, 42.724 ], [ 0.374, 42.715 ], [ 0.388, 42.713 ], [ 0.393, 42.713 ], [ 0.396, 42.7 ], [ 0.426, 42.691 ], [ 0.437, 42.69 ], [ 0.416, 42.673 ], [ 0.376, 42.664 ], [ 0.366, 42.654 ], [ 0.34, 42.646 ], [ 0.336, 42.625 ], [ 0.335, 42.595 ], [ 0.305, 42.573 ], [ 0.27, 42.566 ], [ 0.259, 42.557 ], [ 0.234, 42.541 ], [ 0.22, 42.526 ], [ 0.204, 42.512 ], [ 0.191, 42.495 ], [ 0.183, 42.474 ], [ 0.172, 42.46 ], [ 0.165, 42.445 ], [ 0.157, 42.399 ], [ -0.205, 42.399 ] ] ] } },
{ "type": "Feature", "properties": { "code": 84, "mountain": "Pyrénées Espagne", "title": "Esera", "title_s": "Esera", "id_mf": null }, "geometry": { "type": "Polygon", "coordinates": [ [ [ 0.157, 42.399 ], [ 0.165, 42.445 ], [ 0.172, 42.46 ], [ 0.183, 42.474 ], [ 0.191, 42.495 ], [ 0.204, 42.512 ], [ 0.22, 42.526 ], [ 0.234, 42.541 ], [ 0.259, 42.557 ], [ 0.27, 42.566 ], [ 0.305, 42.573 ], [ 0.335, 42.595 ], [ 0.336, 42.625 ], [ 0.34, 42.646 ], [ 0.366, 42.654 ], [ 0.376, 42.664 ], [ 0.416, 42.673 ], [ 0.437, 42.69 ], [ 0.462, 42.694 ], [ 0.473, 42.7 ], [ 0.478, 42.7 ], [ 0.482, 42.699 ], [ 0.493, 42.693 ], [ 0.516, 42.692 ], [ 0.526, 42.703 ], [ 0.53, 42.703 ], [ 0.579, 42.696 ], [ 0.588, 42.695 ], [ 0.593, 42.701 ], [ 0.594, 42.704 ], [ 0.597, 42.706 ], [ 0.6, 42.703 ], [ 0.622, 42.696 ], [ 0.663, 42.691 ], [ 0.672, 42.669 ], [ 0.69, 42.663 ], [ 0.705, 42.653 ], [ 0.736, 42.639 ], [ 0.751, 42.607 ], [ 0.758, 42.583 ], [ 0.758, 42.559 ], [ 0.742, 42.545 ], [ 0.73, 42.526 ], [ 0.727, 42.505 ], [ 0.725, 42.485 ], [ 0.727, 42.469 ], [ 0.725, 42.451 ], [ 0.729, 42.409 ], [ 0.732, 42.388 ], [ 0.735, 42.361 ], [ 0.737, 42.346 ], [ 0.735, 42.314 ], [ 0.157, 42.399 ] ] ] } },
{ "type": "Feature", "properties": { "code": 85, "mountain": "Pyrénées Espagne", "title": "Aran", "title_s": "Aran", "id_mf": null }, "geometry": { "type": "Polygon", "coordinates": [ [ [ 0.952, 42.591 ], [ 0.927, 42.591 ], [ 0.909, 42.606 ], [ 0.896, 42.608 ], [ 0.887, 42.617 ], [ 0.835, 42.621 ], [ 0.807, 42.624 ], [ 0.797, 42.632 ], [ 0.776, 42.632 ], [ 0.763, 42.64 ], [ 0.736, 42.639 ], [ 0.705, 42.653 ], [ 0.69, 42.663 ], [ 0.672, 42.669 ], [ 0.663, 42.691 ], [ 0.673, 42.691 ], [ 0.68, 42.708 ], [ 0.675, 42.717 ], [ 0.676, 42.727 ], [ 0.67, 42.733 ], [ 0.66, 42.752 ], [ 0.642, 42.755 ], [ 0.664, 42.775 ], [ 0.645, 42.783 ], [ 0.65, 42.785 ], [ 0.652, 42.788 ], [ 0.658, 42.796 ], [ 0.66, 42.798 ], [ 0.67, 42.804 ], [ 0.666, 42.812 ], [ 0.665, 42.815 ], [ 0.67, 42.825 ], [ 0.661, 42.832 ], [ 0.659, 42.835 ], [ 0.659, 42.839 ], [ 0.679, 42.848 ], [ 0.678, 42.855 ], [ 0.692, 42.855 ], [ 0.704, 42.86 ], [ 0.708, 42.861 ], [ 0.713, 42.86 ], [ 0.73, 42.856 ], [ 0.74, 42.848 ], [ 0.779, 42.836 ], [ 0.801, 42.841 ], [ 0.835, 42.828 ], [ 0.854, 42.827 ], [ 0.858, 42.826 ], [ 0.86, 42.822 ], [ 0.871, 42.816 ], [ 0.885, 42.813 ], [ 0.926, 42.79 ], [ 0.934, 42.791 ], [ 0.947, 42.801 ], [ 0.96, 42.806 ], [ 0.984, 42.787 ], [ 1.001, 42.789 ], [ 1.006, 42.791 ], [ 1.01, 42.789 ], [ 1.038, 42.787 ], [ 1.049, 42.782 ], [ 1.073, 42.783 ], [ 1.079, 42.788 ], [ 1.082, 42.786 ], [ 1.09, 42.777 ], [ 1.107, 42.772 ], [ 1.129, 42.755 ], [ 1.135, 42.727 ], [ 1.165, 42.71 ], [ 1.174, 42.709 ], [ 1.19, 42.717 ], [ 1.218, 42.721 ], [ 1.226, 42.725 ], [ 1.229, 42.728 ], [ 1.242, 42.724 ], [ 1.256, 42.715 ], [ 1.269, 42.718 ], [ 1.282, 42.715 ], [ 1.295, 42.719 ], [ 1.309, 42.718 ], [ 1.326, 42.724 ], [ 1.335, 42.724 ], [ 1.337, 42.721 ], [ 1.357, 42.719 ], [ 1.358, 42.716 ], [ 1.352, 42.706 ], [ 1.355, 42.7 ], [ 1.37, 42.696 ], [ 1.373, 42.695 ], [ 1.388, 42.687 ], [ 1.39, 42.67 ], [ 1.413, 42.653 ], [ 1.422, 42.625 ], [ 1.439, 42.604 ], [ 1.409, 42.632 ], [ 1.382, 42.647 ], [ 1.357, 42.658 ], [ 1.331, 42.672 ], [ 1.304, 42.686 ], [ 1.281, 42.686 ], [ 1.257, 42.684 ], [ 1.238, 42.674 ], [ 1.222, 42.672 ], [ 1.215, 42.666 ], [ 1.198, 42.672 ], [ 1.183, 42.679 ], [ 1.166, 42.682 ], [ 1.148, 42.69 ], [ 1.138, 42.697 ], [ 1.127, 42.698 ], [ 1.106, 42.704 ], [ 1.089, 42.718 ], [ 1.06, 42.744 ], [ 1.025, 42.753 ], [ 1.005, 42.75 ], [ 0.99, 42.731 ], [ 0.98, 42.702 ], [ 0.98, 42.651 ], [ 0.989, 42.643 ], [ 1.006, 42.61 ], [ 0.999, 42.591 ], [ 0.952, 42.591 ] ] ] } },
{ "type": "Feature", "properties": { "code": 86, "mountain": "Pyrénées Espagne", "title": "Ribagorcana", "title_s": "Ribag", "id_mf": null }, "geometry": { "type": "Polygon", "coordinates": [ [ [ 0.735, 42.314 ], [ 0.737, 42.346 ], [ 0.735, 42.361 ], [ 0.732, 42.388 ], [ 0.729, 42.409 ], [ 0.725, 42.451 ], [ 0.727, 42.469 ], [ 0.725, 42.485 ], [ 0.727, 42.505 ], [ 0.73, 42.526 ], [ 0.742, 42.545 ], [ 0.758, 42.559 ], [ 0.758, 42.583 ], [ 0.751, 42.607 ], [ 0.736, 42.639 ], [ 0.763, 42.64 ], [ 0.776, 42.632 ], [ 0.797, 42.632 ], [ 0.807, 42.624 ], [ 0.835, 42.621 ], [ 0.887, 42.617 ], [ 0.896, 42.608 ], [ 0.909, 42.606 ], [ 0.927, 42.591 ], [ 0.952, 42.591 ], [ 0.988, 42.547 ], [ 0.988, 42.448 ], [ 0.985, 42.409 ], [ 0.978, 42.389 ], [ 0.967, 42.362 ], [ 0.966, 42.342 ], [ 0.958, 42.324 ], [ 0.954, 42.298 ], [ 0.735, 42.314 ] ] ] } },
{ "type": "Feature", "properties": { "code": 87, "mountain": "Pyrénées Espagne", "title": "Pallaresa", "title_s": "Palla", "id_mf": null }, "geometry": { "type": "Polygon", "coordinates": [ [ [ 0.954, 42.298 ], [ 0.958, 42.324 ], [ 0.966, 42.342 ], [ 0.967, 42.362 ], [ 0.978, 42.389 ], [ 0.985, 42.409 ], [ 0.988, 42.448 ], [ 0.988, 42.547 ], [ 0.952, 42.591 ], [ 0.999, 42.591 ], [ 1.006, 42.61 ], [ 0.989, 42.643 ], [ 0.98, 42.651 ], [ 0.98, 42.702 ], [ 0.99, 42.731 ], [ 1.005, 42.75 ], [ 1.025, 42.753 ], [ 1.06, 42.744 ], [ 1.089, 42.718 ], [ 1.106, 42.704 ], [ 1.127, 42.698 ], [ 1.138, 42.697 ], [ 1.148, 42.69 ], [ 1.166, 42.682 ], [ 1.183, 42.679 ], [ 1.198, 42.672 ], [ 1.215, 42.666 ], [ 1.222, 42.672 ], [ 1.238, 42.674 ], [ 1.257, 42.684 ], [ 1.281, 42.686 ], [ 1.304, 42.686 ], [ 1.331, 42.672 ], [ 1.357, 42.658 ], [ 1.382, 42.647 ], [ 1.409, 42.632 ], [ 1.439, 42.604 ], [ 1.442, 42.598 ], [ 1.441, 42.591 ], [ 1.433, 42.589 ], [ 1.429, 42.586 ], [ 1.429, 42.583 ], [ 1.43, 42.579 ], [ 1.444, 42.572 ], [ 1.445, 42.57 ], [ 1.444, 42.565 ], [ 1.426, 42.559 ], [ 1.413, 42.54 ], [ 1.412, 42.535 ], [ 1.431, 42.541 ], [ 1.445, 42.542 ], [ 1.451, 42.537 ], [ 1.452, 42.532 ], [ 1.455, 42.527 ], [ 1.463, 42.52 ], [ 1.467, 42.514 ], [ 1.467, 42.51 ], [ 1.461, 42.506 ], [ 1.444, 42.498 ], [ 1.421, 42.493 ], [ 1.42, 42.49 ], [ 1.423, 42.486 ], [ 1.435, 42.481 ], [ 1.44, 42.478 ], [ 1.44, 42.467 ], [ 1.444, 42.459 ], [ 1.444, 42.453 ], [ 1.448, 42.45 ], [ 1.454, 42.442 ], [ 1.454, 42.433 ], [ 1.454, 42.423 ], [ 1.452, 42.406 ], [ 1.45, 42.374 ], [ 1.451, 42.371 ], [ 1.41, 42.356 ], [ 1.39, 42.344 ], [ 1.375, 42.332 ], [ 1.357, 42.31 ], [ 1.346, 42.285 ], [ 1.331, 42.26 ], [ 1.308, 42.253 ], [ 1.274, 42.251 ], [ 1.253, 42.194 ], [ 1.25, 42.171 ], [ 1.24, 42.145 ], [ 1.24, 42.103 ], [ 0.954, 42.298 ] ] ] } },
{ "type": "Feature", "properties": { "code": 88, "mountain": "Pyrénées Espagne", "title": "Perafita", "title_s": "Peraf", "id_mf": null }, "geometry": { "type": "Polygon", "coordinates": [ [ [ 1.45, 42.374 ], [ 1.452, 42.406 ], [ 1.454, 42.423 ], [ 1.454, 42.433 ], [ 1.454, 42.442 ], [ 1.46, 42.44 ], [ 1.468, 42.438 ], [ 1.509, 42.433 ], [ 1.518, 42.434 ], [ 1.533, 42.434 ], [ 1.552, 42.436 ], [ 1.557, 42.451 ], [ 1.561, 42.458 ], [ 1.565, 42.459 ], [ 1.58, 42.449 ], [ 1.588, 42.464 ], [ 1.594, 42.466 ], [ 1.628, 42.464 ], [ 1.637, 42.468 ], [ 1.654, 42.468 ], [ 1.661, 42.476 ], [ 1.663, 42.482 ], [ 1.664, 42.496 ], [ 1.669, 42.505 ], [ 1.67, 42.506 ], [ 1.683, 42.496 ], [ 1.704, 42.494 ], [ 1.712, 42.495 ], [ 1.719, 42.499 ], [ 1.727, 42.503 ], [ 1.732, 42.493 ], [ 1.747, 42.495 ], [ 1.768, 42.487 ], [ 1.805, 42.489 ], [ 1.813, 42.485 ], [ 1.831, 42.483 ], [ 1.843, 42.477 ], [ 1.845, 42.474 ], [ 1.856, 42.464 ], [ 1.865, 42.465 ], [ 1.878, 42.461 ], [ 1.887, 42.45 ], [ 1.9, 42.45 ], [ 1.905, 42.449 ], [ 1.918, 42.447 ], [ 1.934, 42.454 ], [ 1.937, 42.453 ], [ 1.941, 42.447 ], [ 1.929, 42.432 ], [ 1.916, 42.424 ], [ 1.903, 42.418 ], [ 1.886, 42.407 ], [ 1.866, 42.401 ], [ 1.831, 42.387 ], [ 1.793, 42.381 ], [ 1.764, 42.381 ], [ 1.738, 42.378 ], [ 1.717, 42.37 ], [ 1.686, 42.365 ], [ 1.638, 42.365 ], [ 1.589, 42.363 ], [ 1.558, 42.365 ], [ 1.54, 42.363 ], [ 1.522, 42.365 ], [ 1.487, 42.365 ], [ 1.45, 42.374 ] ] ] } },
{ "type": "Feature", "properties": { "code": 89, "mountain": "Pyrénées Espagne", "title": "Ter-Freser", "title_s": "TerFr", "id_mf": null }, "geometry": { "type": "Polygon", "coordinates": [ [ [ 1.95, 42.325 ], [ 1.95, 42.351 ], [ 1.958, 42.371 ], [ 1.954, 42.392 ], [ 1.942, 42.431 ], [ 1.945, 42.428 ], [ 1.958, 42.424 ], [ 1.956, 42.417 ], [ 1.961, 42.393 ], [ 1.97, 42.377 ], [ 1.989, 42.361 ], [ 2.013, 42.349 ], [ 2.023, 42.355 ], [ 2.06, 42.359 ], [ 2.077, 42.364 ], [ 2.086, 42.364 ], [ 2.09, 42.374 ], [ 2.093, 42.375 ], [ 2.114, 42.382 ], [ 2.115, 42.395 ], [ 2.119, 42.396 ], [ 2.127, 42.41 ], [ 2.133, 42.414 ], [ 2.137, 42.416 ], [ 2.157, 42.423 ], [ 2.201, 42.417 ], [ 2.226, 42.426 ], [ 2.244, 42.429 ], [ 2.257, 42.438 ], [ 2.294, 42.423 ], [ 2.311, 42.428 ], [ 2.319, 42.425 ], [ 2.327, 42.417 ], [ 2.345, 42.414 ], [ 2.348, 42.408 ], [ 2.356, 42.404 ], [ 2.37, 42.402 ], [ 2.374, 42.363 ], [ 2.371, 42.343 ], [ 2.362, 42.322 ], [ 2.353, 42.306 ], [ 2.349, 42.29 ], [ 2.343, 42.279 ], [ 2.331, 42.265 ], [ 2.309, 42.254 ], [ 2.285, 42.25 ], [ 2.241, 42.237 ], [ 2.21, 42.235 ], [ 2.161, 42.237 ], [ 2.112, 42.237 ], [ 2.076, 42.237 ], [ 2.041, 42.254 ], [ 2.004, 42.285 ], [ 1.983, 42.297 ], [ 1.95, 42.325 ] ] ] } },
{ "type": "Feature", "properties": { "code": 90, "mountain": "Pyrénées Espagne", "title": "Cadi Moixero", "title_s": "CaMoi", "id_mf": null }, "geometry": { "type": "Polygon", "coordinates": [ [ [ 1.335, 42.263 ], [ 1.346, 42.285 ], [ 1.357, 42.31 ], [ 1.375, 42.332 ], [ 1.39, 42.344 ], [ 1.41, 42.356 ], [ 1.451, 42.371 ], [ 1.45, 42.374 ], [ 1.487, 42.365 ], [ 1.522, 42.365 ], [ 1.54, 42.363 ], [ 1.558, 42.365 ], [ 1.589, 42.363 ], [ 1.638, 42.365 ], [ 1.686, 42.365 ], [ 1.717, 42.37 ], [ 1.738, 42.378 ], [ 1.764, 42.381 ], [ 1.793, 42.381 ], [ 1.831, 42.387 ], [ 1.866, 42.401 ], [ 1.886, 42.407 ], [ 1.903, 42.418 ], [ 1.916, 42.424 ], [ 1.929, 42.432 ], [ 1.941, 42.447 ], [ 1.943, 42.444 ], [ 1.941, 42.434 ], [ 1.942, 42.431 ], [ 1.954, 42.392 ], [ 1.958, 42.371 ], [ 1.95, 42.351 ], [ 1.95, 42.325 ], [ 1.927, 42.309 ], [ 1.894, 42.3 ], [ 1.879, 42.296 ], [ 1.861, 42.289 ], [ 1.848, 42.285 ], [ 1.832, 42.283 ], [ 1.816, 42.282 ], [ 1.792, 42.274 ], [ 1.769, 42.269 ], [ 1.737, 42.263 ], [ 1.69, 42.263 ], [ 1.637, 42.261 ], [ 1.587, 42.256 ], [ 1.54, 42.253 ], [ 1.49, 42.256 ], [ 1.443, 42.269 ], [ 1.4, 42.266 ], [ 1.369, 42.261 ], [ 1.335, 42.263 ] ] ] } },
{ "type": "Feature", "properties": { "code": 91, "mountain": "Pyrénées Espagne", "title": "Pre-Pireneu", "title_s": "PrePi", "id_mf": null }, "geometry": { "type": "Polygon", "coordinates": [ [ [ 1.24, 42.103 ], [ 1.24, 42.145 ], [ 1.25, 42.171 ], [ 1.253, 42.194 ], [ 1.274, 42.251 ], [ 1.308, 42.253 ], [ 1.331, 42.26 ], [ 1.335, 42.263 ], [ 1.369, 42.261 ], [ 1.4, 42.266 ], [ 1.443, 42.269 ], [ 1.49, 42.256 ], [ 1.54, 42.253 ], [ 1.587, 42.256 ], [ 1.637, 42.261 ], [ 1.69, 42.263 ], [ 1.737, 42.263 ], [ 1.769, 42.269 ], [ 1.792, 42.274 ], [ 1.816, 42.282 ], [ 1.832, 42.283 ], [ 1.848, 42.285 ], [ 1.861, 42.289 ], [ 1.879, 42.296 ], [ 1.894, 42.3 ], [ 1.927, 42.309 ], [ 1.95, 42.325 ], [ 1.983, 42.297 ], [ 2.004, 42.285 ], [ 2.041, 42.254 ], [ 2.076, 42.237 ], [ 1.24, 42.103 ] ] ] } }
]
}